"Название региона";"С..";"по..";"Коды";"Сумма без НДС";"Сумма НДС";"Сумма с НДС";
"Австралия";"01.08.2009";"";"61,613:8-9; 618:6,92-94;";"0.0000";"0.0000";"0.0000"
"Австралия Global satellite mobile";"01.08.2009";"";"6114";"0.0000";"0.0000";"0.0000"
"Австралия города";"01.08.2009";"";"6126:1-2; 612:8-9; 61:73,881-884;";"0.0000";"0.0000";"0.0000"
"Австралия моб.";"01.08.2009";"";"614";"0.0000";"0.0000";"0.0000"
"Австралия, мобильные";"01.08.2009";"";"6116";"0.0000";"0.0000";"0.0000"
"Австралия мобильные";"01.08.2009";"";"614:00-25,27-35,37-39,47-51,58,66,88;";"0.0000";"0.0000";"0.0000"
"Австрия";"01.08.2009";"";"43";"0.0000";"0.0000";"0.0000"
"Австрия Вена";"01.08.2009";"";"431";"0.0000";"0.0000";"0.0000"
"Австрия моб.Connect One";"01.08.2009";"";"436:81,99;";"0.0000";"0.0000";"0.0000"
"Австрия моб.Mobilkom";"01.08.2009";"";"436:64,80,88,9988-9989;";"0.0000";"0.0000";"0.0000"
"Австрия моб.Telering";"01.08.2009";"";"43650";"0.0000";"0.0000";"0.0000"
"Австрия моб.T-Mobile";"01.08.2009";"";"4367:6-7;";"0.0000";"0.0000";"0.0000"
"Австрия моб.др.";"01.08.2009";"";"436:44,78;";"0.0000";"0.0000";"0.0000"
"Австрия моб.3G";"01.08.2009";"";"436:60,7833,7890-7891;";"0.0000";"0.0000";"0.0000"
"Австрия специальные сервисы";"01.08.2009";"";"437:11,30,40; 438:10,20;";"0.0000";"0.0000";"0.0000"
"Азербайджан";"01.08.2009";"";"994";"0.0000";"0.0000";"0.0000"
"Азербайджан Баку";"01.08.2009";"";"99412";"0.0000";"0.0000";"0.0000"
"Азербайджан моб.Azercell";"01.08.2009";"";"9945:0-1;";"0.0000";"0.0000";"0.0000"
"Азербайджан моб.Azerfon";"01.08.2009";"";"99470";"0.0000";"0.0000";"0.0000"
"Азербайджан моб.Bakcell";"01.08.2009";"";"99455";"0.0000";"0.0000";"0.0000"
"Азербайджан моб.Catel";"01.08.2009";"";"99440";"0.0000";"0.0000";"0.0000"
"Азербайджан моб.др.";"01.08.2009";"";"99460";"0.0000";"0.0000";"0.0000"
"Албания";"01.08.2009";"";"355";"0.0000";"0.0000";"0.0000"
"Албания моб.AMC";"01.08.2009";"";"35568";"0.0000";"0.0000";"0.0000"
"Албания моб.Eagle";"01.08.2009";"";"35567";"0.0000";"0.0000";"0.0000"
"Албания моб.Vodafone";"01.08.2009";"";"35569";"0.0000";"0.0000";"0.0000"
"Албания Тирана";"01.08.2009";"";"3554";"0.0000";"0.0000";"0.0000"
"Алжир";"01.08.2009";"";"213";"0.0000";"0.0000";"0.0000"
"Алжир Алжир";"01.08.2009";"";"21321";"0.0000";"0.0000";"0.0000"
"Алжир моб.Wataniya";"01.08.2009";"";"2135";"0.0000";"0.0000";"0.0000"
"Алжир моб.др.";"01.08.2009";"";"213:6-7;";"0.0000";"0.0000";"0.0000"
"Алжир, мобильные";"01.08.2009";"";"2139:0-6,8-9;";"0.0000";"0.0000";"0.0000"
"Алжир мобильные";"01.08.2009";"";"21397";"0.0000";"0.0000";"0.0000"
"Американское (Восточное) Самоа";"01.08.2009";"";"1684";"0.0000";"0.0000";"0.0000"
"Ангилья";"01.08.2009";"";"1264";"0.0000";"0.0000";"0.0000"
"Ангола";"01.08.2009";"";"244";"0.0000";"0.0000";"0.0000"
"Ангола моб.Movicel";"01.08.2009";"";"24491";"0.0000";"0.0000";"0.0000"
"Ангола моб.Unitel";"01.08.2009";"";"2449:2-3;";"0.0000";"0.0000";"0.0000"
"Ангуилья мобильные";"01.08.2009";"";"1264:235,469,476,536-539,543,581-584,729,772;";"0.0000";"0.0000";"0.0000"
"Андорра";"01.08.2009";"";"376";"0.0000";"0.0000";"0.0000"
"Андорра моб.";"01.08.2009";"";"376:3-6;";"0.0000";"0.0000";"0.0000"
"Антарктика";"01.08.2009";"";"672";"0.0000";"0.0000";"0.0000"
"Антигуа и Барбуда";"01.08.2009";"";"1268";"0.0000";"0.0000";"0.0000"
"Антильские о-ва";"01.08.2009";"";"59956";"0.0000";"0.0000";"0.0000"
"Антильские о-ва мобильные";"01.08.2009";"";"599318,599318:5-6; 599:416,5,51,510,520-524,526-527,550-559,580-581,586-588,61,630-631,66-67,69;";"0.0000";"0.0000";"0.0000"
"Антильские о-ва (Нидерланды)";"01.08.2009";"";"599";"0.0000";"0.0000";"0.0000"
"Аргентина";"01.08.2009";"";"54";"0.0000";"0.0000";"0.0000"
"Аргентина OFF-NET (Другие города)";"01.08.2009";"";"5422:1,3; 542:32,61,91,99; 5434:1-2; 5435:1,8; 5438:1,7;";"0.0000";"0.0000";"0.0000"
"Аргентина Буэнос Айрес";"01.08.2009";"";"5411";"0.0000";"0.0000";"0.0000"
"Аргентина Буэнос Аэрос";"01.08.2009";"";"54911";"0.0000";"0.0000";"0.0000"
"Аргентина моб.";"01.08.2009";"";"549";"0.0000";"0.0000";"0.0000"
"Армения";"01.08.2009";"";"374";"0.0000";"0.0000";"0.0000"
"Армения";"01.08.2009";"";"37422:2,6; 37423:4,7-8;";"0.0000";"0.0000";"0.0000"
"Армения,  Масис";"01.08.2009";"";"374236";"0.0000";"0.0000";"0.0000"
"Армения Ванадзор";"01.08.2009";"";"374322";"0.0000";"0.0000";"0.0000"
"Армения Гюмри";"01.08.2009";"";"374312";"0.0000";"0.0000";"0.0000"
"Армения Ереван";"01.08.2009";"";"37410";"0.0000";"0.0000";"0.0000"
"Армения моб.ArmenTel";"01.08.2009";"";"3749:1,9;";"0.0000";"0.0000";"0.0000"
"Армения моб.VivaCell";"01.08.2009";"";"374:77,93-94,98;";"0.0000";"0.0000";"0.0000"
"Армения Храздан";"01.08.2009";"";"374223";"0.0000";"0.0000";"0.0000"
"Армения Эчмиадзин";"01.08.2009";"";"374231";"0.0000";"0.0000";"0.0000"
"Аруба";"01.08.2009";"";"297";"0.0000";"0.0000";"0.0000"
"Аруба моб.";"01.08.2009";"";"2975:6,9; 2977:3-4;";"0.0000";"0.0000";"0.0000"
"Аруба, мобильные";"01.08.2009";"";"2979:6,9;";"0.0000";"0.0000";"0.0000"
"Аруба (мобильные)";"01.08.2009";"";"2976:00,22;";"0.0000";"0.0000";"0.0000"
"Афганистан";"01.08.2009";"";"93,9340";"0.0000";"0.0000";"0.0000"
"Афганистан Кабул";"01.08.2009";"";"9320";"0.0000";"0.0000";"0.0000"
"Афганистан моб.Afghan Telecom";"01.08.2009";"";"9375";"0.0000";"0.0000";"0.0000"
"Афганистан моб.AWCC";"01.08.2009";"";"9370";"0.0000";"0.0000";"0.0000"
"Афганистан моб.Etisalat";"01.08.2009";"";"9378";"0.0000";"0.0000";"0.0000"
"Афганистан моб.MTN";"01.08.2009";"";"9377";"0.0000";"0.0000";"0.0000"
"Афганистан моб.Roshan";"01.08.2009";"";"9379";"0.0000";"0.0000";"0.0000"
"Багамы";"01.08.2009";"";"1242";"0.0000";"0.0000";"0.0000"
"Бангладеш";"01.08.2009";"";"880";"0.0000";"0.0000";"0.0000"
"Бангладеш Дака";"01.08.2009";"";"8802";"0.0000";"0.0000";"0.0000"
"Бангладеш моб.";"01.08.2009";"";"8801";"0.0000";"0.0000";"0.0000"
"Бангладеш Силгет";"01.08.2009";"";"880821";"0.0000";"0.0000";"0.0000"
"Бангладеш Читтагонг";"01.08.2009";"";"88031";"0.0000";"0.0000";"0.0000"
"Барбадос";"01.08.2009";"";"1246";"0.0000";"0.0000";"0.0000"
"Барбадос DIGICEL мобильные";"01.08.2009";"";"124625:6-9; 124653:0-4;";"0.0000";"0.0000";"0.0000"
"Барбадос моб.";"01.08.2009";"";"12462:3-4,6; 1246:45,52,82-83;";"0.0000";"0.0000";"0.0000"
"Барбадос мобильные";"01.08.2009";"";"124625:0-5; 124644:6-9;";"0.0000";"0.0000";"0.0000"
"Бахрейн";"01.08.2009";"";"973,973900";"0.0000";"0.0000";"0.0000"
"Бахрейн моб.";"01.08.2009";"";"9733:6,77,88,9;";"0.0000";"0.0000";"0.0000"
"Беларусь";"01.08.2009";"";"375";"0.0000";"0.0000";"0.0000"
"Беларусь Гродно";"01.08.2009";"";"375152";"0.0000";"0.0000";"0.0000"
"Беларусь Минск";"01.08.2009";"";"37517:2-3,5;";"0.0000";"0.0000";"0.0000"
"Беларусь моб.BeST";"01.08.2009";"";"37525";"0.0000";"0.0000";"0.0000"
"Беларусь моб.MDC";"01.08.2009";"";"37544";"0.0000";"0.0000";"0.0000"
"Беларусь моб.MTS";"01.08.2009";"";"37529:2,5,7-8; 37533";"0.0000";"0.0000";"0.0000"
"Беларусь, мобильные";"01.08.2009";"";"37529";"0.0000";"0.0000";"0.0000"
"Белиз";"01.08.2009";"";"501";"0.0000";"0.0000";"0.0000"
"Белиз моб.";"01.08.2009";"";"5016";"0.0000";"0.0000";"0.0000"
"Бельгия";"01.08.2009";"";"32";"0.0000";"0.0000";"0.0000"
"Бельгия моб.Base";"01.08.2009";"";"3248";"0.0000";"0.0000";"0.0000"
"Бельгия моб.Belgacom (Proximus)";"01.08.2009";"";"3247";"0.0000";"0.0000";"0.0000"
"Бельгия моб.Mobistar";"01.08.2009";"";"3249";"0.0000";"0.0000";"0.0000"
"Бельгия моб.др.";"01.08.2009";"";"3245";"0.0000";"0.0000";"0.0000"
"Бенин";"01.08.2009";"";"229";"0.0000";"0.0000";"0.0000"
"Бенин мобильные";"01.08.2009";"";"2299:0,3,5-8;";"0.0000";"0.0000";"0.0000"
"Бермудские о-ва";"01.08.2009";"";"1441";"0.0000";"0.0000";"0.0000"
"Болгария";"01.08.2009";"";"359";"0.0000";"0.0000";"0.0000"
"Болгария WiMax";"01.08.2009";"";"35999";"0.0000";"0.0000";"0.0000"
"Болгария моб.BTC";"01.08.2009";"";"35987";"0.0000";"0.0000";"0.0000"
"Болгария моб.GloBul";"01.08.2009";"";"35989";"0.0000";"0.0000";"0.0000"
"Болгария моб.Mobikom";"01.08.2009";"";"35948";"0.0000";"0.0000";"0.0000"
"Болгария моб.Mobiltel";"01.08.2009";"";"35988";"0.0000";"0.0000";"0.0000"
"Болгария моб.др.";"01.08.2009";"";"35998";"0.0000";"0.0000";"0.0000"
"Болгария София";"01.08.2009";"";"3592";"0.0000";"0.0000";"0.0000"
"Боливия";"01.08.2009";"";"591";"0.0000";"0.0000";"0.0000"
"Боливия Кочабамба";"01.08.2009";"";"59144";"0.0000";"0.0000";"0.0000"
"Боливия Ла-Пас";"01.08.2009";"";"59122";"0.0000";"0.0000";"0.0000"
"Боливия моб.";"01.08.2009";"";"5917";"0.0000";"0.0000";"0.0000"
"Боливия моб Entel";"01.08.2009";"";"5917:1-3;";"0.0000";"0.0000";"0.0000"
"Боливия моб Nuevatel";"01.08.2009";"";"5917:0,9;";"0.0000";"0.0000";"0.0000"
"Боливия моб Telecel";"01.08.2009";"";"5917:6-7;";"0.0000";"0.0000";"0.0000"
"Боливия Санта-Крус";"01.08.2009";"";"59133";"0.0000";"0.0000";"0.0000"
"Босния и Герцеговина";"01.08.2009";"";"387,387:3-4;";"0.0000";"0.0000";"0.0000"
"Босния и Герцеговина моб.BH Telecom";"01.08.2009";"";"3876:1-2;";"0.0000";"0.0000";"0.0000"
"Босния и Герцеговина моб.Eronet";"01.08.2009";"";"38763";"0.0000";"0.0000";"0.0000"
"Босния и Герцеговина моб.Telekom Srpske";"01.08.2009";"";"3876:5-6;";"0.0000";"0.0000";"0.0000"
"Босния и Герцеговина мобильные";"01.08.2009";"";"3875";"0.0000";"0.0000";"0.0000"
"Ботсвана";"01.08.2009";"";"267";"0.0000";"0.0000";"0.0000"
"Ботсвана моб.";"01.08.2009";"";"2677";"0.0000";"0.0000";"0.0000"
"Бразилия";"01.08.2009";"";"55,55910";"0.0000";"0.0000";"0.0000"
"Бразилия (Formerly Part Of Brazil ROC Fix) Tier 1 Cities";"01.08.2009";"";"55:51,62,71,81;";"0.0000";"0.0000";"0.0000"
"Бразилия (Formerly Part Of Brazil ROC FIX) TIER 2 Cities";"01.08.2009";"";"5512";"0.0000";"0.0000";"0.0000"
"Бразилия моб.";"01.08.2009";"";"5511:6-9; 5512:7-9; 5513:7-9; 5514:7-9; 5515:7-9; 5516:7-9; 5517:7-9; 5518:7-9; 5519:7-9; 5521:7-9; 5522:7-9; 5523:7-9; 5524:7-9; 5525:7-9; 5526:7-9; 5527:7-9; 5528:7-9; 5529:7-9; 5531:7-9; 5532:7-9; 5533:7-9; 5534:7-9; 5535:7-9; 5536:7-9; 5537:7-9; 5538:7-9; 5539:7-9; 5541:7-9; 5542:7-9; 5543:7-9; 5544:7-9; 5545:7-9; 5546:7-9; 5547:7-9; 5548:7-9; 5549:7-9; 5551:7-9; 5552:7-9; 5553:7-9; 5554:7-9; 5555:7-9; 5556:7-9; 5557:7-9; 5558:7-9; 5559:7-9; 5561:7-9; 5562:7-9; 5563:7-9; 5564:7-9; 5565:7-9; 5566:7-9; 5567:7-9; 5568:7-9; 5569:7-9; 5571:7-9; 5572:7-9; 5573:7-9; 5574:7-9; 5575:7-9; 5576:7-9; 5577:7-9; 5578:7-9; 5579:7-9; 5581:7-9; 5582:6-9; 5583:6-9; 5584:7-9; 5585:7-9; 5586:7-9; 5587:7-9; 5588:7-9; 5589:7-9; 5591:7-9; 5592:7-9; 5593:7-9; 5594:7-9; 5595:7-9; 5596:7-9; 5597:7-9; 5598:7-9; 5599:7-9;";"0.0000";"0.0000";"0.0000"
"Бразилия, мобильные";"01.08.2009";"";"55:35,44;";"0.0000";"0.0000";"0.0000"
"Бразилия Рио-де-Жанейро";"01.08.2009";"";"5521";"0.0000";"0.0000";"0.0000"
"Бразилия Сан-Паулу";"01.08.2009";"";"5511";"0.0000";"0.0000";"0.0000"
"Бруней";"01.08.2009";"";"673,67322:7-8;";"0.0000";"0.0000";"0.0000"
"Бруней моб.";"01.08.2009";"";"673:71,8;";"0.0000";"0.0000";"0.0000"
"Буркина Фасо";"01.08.2009";"";"226";"0.0000";"0.0000";"0.0000"
"Буркина Фасо мобильные";"01.08.2009";"";"2267:0,5-6,8;";"0.0000";"0.0000";"0.0000"
"Буркина-Фасо мобильные";"01.08.2009";"";"22671";"0.0000";"0.0000";"0.0000"
"Бурунди";"01.08.2009";"";"257";"0.0000";"0.0000";"0.0000"
"Бурунди моб.";"01.08.2009";"";"25729";"0.0000";"0.0000";"0.0000"
"Бурунди мобильные";"01.08.2009";"";"2577:6-9;";"0.0000";"0.0000";"0.0000"
"Бутан";"01.08.2009";"";"975";"0.0000";"0.0000";"0.0000"
"Бутан моб";"01.08.2009";"";"97517";"0.0000";"0.0000";"0.0000"
"Бутан мобильные";"01.08.2009";"";"9759";"0.0000";"0.0000";"0.0000"
"Вануату";"01.08.2009";"";"678";"0.0000";"0.0000";"0.0000"
"Ватикан";"01.08.2009";"";"39066982";"0.0000";"0.0000";"0.0000"
"Великобритания";"01.08.2009";"";"44";"0.0000";"0.0000";"0.0000"
"Великобритания NTS 844";"01.08.2009";"";"44844";"0.0000";"0.0000";"0.0000"
"Великобритания NTS 845";"01.08.2009";"";"44845";"0.0000";"0.0000";"0.0000"
"Великобритания NTS 870";"01.08.2009";"";"44870";"0.0000";"0.0000";"0.0000"
"Великобритания NTS 871";"01.08.2009";"";"44871";"0.0000";"0.0000";"0.0000"
"Великобритания моб O2";"01.08.2009";"";"447:71,8923-8924,8926-8929,8932,8934-8937;";"0.0000";"0.0000";"0.0000"
"Великобритания моб.Hi3G (Hutchison)";"01.08.2009";"";"4475:33,88; 44772:3,7-8; 44773:5,7; 4478:28,30,32,38,46,48,53,59,61-63,65,68-69,77-78,82-83,86,88,97-98; 44791:5-6; 447988";"0.0000";"0.0000";"0.0000"
"Великобритания моб.Hi3G роуминг";"01.08.2009";"";"447782";"0.0000";"0.0000";"0.0000"
"Великобритания моб.Orange";"01.08.2009";"";"4475:27-31,320-324,36,56; 44777:2-3,9; 44779:0-2,4; 44780:0,5,7; 44781:1-7; 4478:37,54-55,66,70,75,90-91,96; 4479:29,64-72,74-77,80,89;";"0.0000";"0.0000";"0.0000"
"Великобритания моб.Orange роуминг";"01.08.2009";"";"447973";"0.0000";"0.0000";"0.0000"
"Великобритания моб.O2";"01.08.2009";"";"4475:1,21-23,25-26,4,9; 44770:1-9; 44772:0,4-5; 4477:29-32,34,36,38-40,42-43,45-46,49-54,56,59,61-64,83-84,93; 44780:1,3,8-9; 4478:19-21,34-35,50-51,56-58,60,71,85,89,94-95; 44790:2,7; 4479:12,21-23,25-28,33-36,38,55,99;";"0.0000";"0.0000";"0.0000"
"Великобритания моб.O2 роуминг";"01.08.2009";"";"447802";"0.0000";"0.0000";"0.0000"
"Великобритания моб.T-Mobile";"01.08.2009";"";"44750:4-8; 44753:4-5,8-9; 447:550,722,726,757-758,804,806,847,852,903-906,908,910,913-914,930-932,939,94,960-963,981-987;";"0.0000";"0.0000";"0.0000"
"Великобритания моб.T-Mobile роуминг";"01.08.2009";"";"447953";"0.0000";"0.0000";"0.0000"
"Великобритания моб.Vodafone";"01.08.2009";"";"44750:0-3; 44755:1-5; 4477:17,21,33,41,47-48,65-71,74-76,78,80,86-87,89,95-96,98; 44781:0,8; 44782:5-7; 44783:1,3,6; 4478:67,76,79-81,84,87; 447:899-901,909,917-920,979,990;";"0.0000";"0.0000";"0.0000"
"Великобритания моб.Vodafone роуминг";"01.08.2009";"";"4477:60,85,88,99; 44782:3-4;";"0.0000";"0.0000";"0.0000"
"Великобритания моб.др.";"01.08.2009";"";"447";"0.0000";"0.0000";"0.0000"
"Великобритания, мобильные";"01.08.2009";"";"44756:0-5; 447:777,950-952,956-959;";"0.0000";"0.0000";"0.0000"
"Великобритания мобильные";"01.08.2009";"";"447954";"0.0000";"0.0000";"0.0000"
"Великобритания мобильные MMO2";"01.08.2009";"";"447864:0-3,5-9; 447872:0-1,3-6,8-9; 44787:31-43,46-49;";"0.0000";"0.0000";"0.0000"
"Великобритания персональные номера";"01.08.2009";"";"4470";"0.0000";"0.0000";"0.0000"
"Венгрия";"01.08.2009";"";"36";"0.0000";"0.0000";"0.0000"
"Венгрия Будапешт";"01.08.2009";"";"361";"0.0000";"0.0000";"0.0000"
"Венгрия моб.Pannon";"01.08.2009";"";"3620";"0.0000";"0.0000";"0.0000"
"Венгрия моб.T-Mobile";"01.08.2009";"";"3630";"0.0000";"0.0000";"0.0000"
"Венгрия моб.Vodafone";"01.08.2009";"";"3670";"0.0000";"0.0000";"0.0000"
"Венесуэла";"01.08.2009";"";"58";"0.0000";"0.0000";"0.0000"
"Венесуэла Каракас";"01.08.2009";"";"58212";"0.0000";"0.0000";"0.0000"
"Венесуэла моб Digicel";"01.08.2009";"";"5841:2,7;";"0.0000";"0.0000";"0.0000"
"Венесуэла моб Movilnet";"01.08.2009";"";"584:16,26;";"0.0000";"0.0000";"0.0000"
"Венесуэла моб Telcel";"01.08.2009";"";"584:14,24;";"0.0000";"0.0000";"0.0000"
"Венесуэла мобильные 2";"01.08.2009";"";"5841:5,8;";"0.0000";"0.0000";"0.0000"
"Виргинские о-ва (Британские)";"01.08.2009";"";"1284";"0.0000";"0.0000";"0.0000"
"Виргинские о-ва (США)";"01.08.2009";"";"1340";"0.0000";"0.0000";"0.0000"
"Вознесения о-в";"01.08.2009";"";"247";"0.0000";"0.0000";"0.0000"
"Вьетнам";"01.08.2009";"";"84";"0.0000";"0.0000";"0.0000"
"Вьетнам моб.";"01.08.2009";"";"8412:1-3,5-8;";"0.0000";"0.0000";"0.0000"
"Вьетнам, мобильные";"01.08.2009";"";"84:16,90-99;";"0.0000";"0.0000";"0.0000"
"Вьетнам Ханой";"01.08.2009";"";"844";"0.0000";"0.0000";"0.0000"
"Вьетнам Хо-Ши-Мин";"01.08.2009";"";"848";"0.0000";"0.0000";"0.0000"
"Габон";"01.08.2009";"";"241";"0.0000";"0.0000";"0.0000"
"Габон моб.Celtel";"01.08.2009";"";"24107";"0.0000";"0.0000";"0.0000"
"Габон моб.Libertis";"01.08.2009";"";"24106";"0.0000";"0.0000";"0.0000"
"Габон моб.Telecel";"01.08.2009";"";"24105";"0.0000";"0.0000";"0.0000"
"Гаити";"01.08.2009";"";"509";"0.0000";"0.0000";"0.0000"
"Гаити, мобильные";"01.08.2009";"";"509:3-7,80-87,9;";"0.0000";"0.0000";"0.0000"
"Гаити мобильные";"01.08.2009";"";"5092:5,81,94; 5093:4-9;";"0.0000";"0.0000";"0.0000"
"Гайана";"01.08.2009";"";"592";"0.0000";"0.0000";"0.0000"
"Гамбия";"01.08.2009";"";"220";"0.0000";"0.0000";"0.0000"
"Гамбия моб.";"01.08.2009";"";"220:6-7,9;";"0.0000";"0.0000";"0.0000"
"Гана";"01.08.2009";"";"233";"0.0000";"0.0000";"0.0000"
"Гана Аккра";"01.08.2009";"";"23321";"0.0000";"0.0000";"0.0000"
"Гана моб.";"01.08.2009";"";"2332:0,3-4,7-8; 23354";"0.0000";"0.0000";"0.0000"
"Гваделупа";"01.08.2009";"";"590";"0.0000";"0.0000";"0.0000"
"Гваделупа моб.";"01.08.2009";"";"590690";"0.0000";"0.0000";"0.0000"
"Гватемала";"01.08.2009";"";"502,502:241,40-42,490-492;";"0.0000";"0.0000";"0.0000"
"Гватемала COMCEL";"01.08.2009";"";"50250:0,3-6; 5025:15-20,30,314-319,32-34,550-553,580-581,70,719,72-78,80,819,89-90,918-919,99;";"0.0000";"0.0000";"0.0000"
"Гватемала COMCEL мобильные";"01.08.2009";"";"50253:5-8; 502588";"0.0000";"0.0000";"0.0000"
"Гватемала ON NET (Telgua)";"01.08.2009";"";"5026646";"0.0000";"0.0000";"0.0000"
"Гватемала ON-NET FIXED";"01.08.2009";"";"502242:5-6; 502248:0,3-4; 5024:3,6; 50266:29-37,40-42; 502786:7-8; 502787:0-2,4; 502792:2-8; 502793:0,3-6,8; 50279:4,50-54,60;";"0.0000";"0.0000";"0.0000"
"Гватемала ON-NET (PCS)";"01.08.2009";"";"502222:2-3; 502232:0-2,4; 5025:01,11-13,310-311,42,48,510-517,531-539,543-544,554-559,56-57,582-589,59,61-63,69,710-718,810-818,85,910-914,92-94; 502662:1,3; 5027:723,821-823;";"0.0000";"0.0000";"0.0000"
"Гватемала ON-NET (TELGUA)";"01.08.2009";"";"502222:0-1; 502223:0,2,8; 50222:42,50-51,53-61,70,86,88-89; 502233:1-9; 5022:36,431-442,444-445,448-449,460-464,471-479; 502664:3-5; 502:6650,7720-7722,7736-7738,7755-7756,776,7770-7777,7780,7830-7834,7838-7846,7849,7873,7880-7882,7884-7889,7931-7932,7937;";"0.0000";"0.0000";"0.0000"
"Гватемала ON-NET мобильные (PCS)";"01.08.2009";"";"502242:0-4; 50241:0-4,50-59,6-9; 50247:0-3,40-41; 50254:1,3-6,9; 502:6620,7820,7920;";"0.0000";"0.0000";"0.0000"
"Гватемала мобильные";"01.08.2009";"";"50222:29,67-69,77-79; 502237:5-9; 502245:0,9; 502:2470,440-447,45,502,507-510,514,521,5221-5226,523-529,5312-5313,539-540,550,5518-5519,552-553,5540-5542,5545-5549,560,5600-5608,564-568,579,5915-5917,595-598,6648-6649,6659-6660,6677,6679,7740-7744,7759,7779,7859,7879,7959,7968-7969,7979;";"0.0000";"0.0000";"0.0000"
"Гватемала мобильные Movistar";"01.08.2009";"";"502522:7-9;";"0.0000";"0.0000";"0.0000"
"Гватемала мобильные OnNet";"01.08.2009";"";"5025220";"0.0000";"0.0000";"0.0000"
"Гватемала мобильные Sercom";"01.08.2009";"";"502501:0-5; 5025:47,82-84,86-87;";"0.0000";"0.0000";"0.0000"
"Гвинея";"01.08.2009";"";"224";"0.0000";"0.0000";"0.0000"
"Гвинея моб.Areeba";"01.08.2009";"";"22464";"0.0000";"0.0000";"0.0000"
"Гвинея моб.Cellcom";"01.08.2009";"";"2246:5,7;";"0.0000";"0.0000";"0.0000"
"Гвинея моб.Intercel";"01.08.2009";"";"22463";"0.0000";"0.0000";"0.0000"
"Гвинея моб.Orange";"01.08.2009";"";"2246:2,8;";"0.0000";"0.0000";"0.0000"
"Гвинея моб.Sotelgui";"01.08.2009";"";"22460";"0.0000";"0.0000";"0.0000"
"Гвинея мобильные";"01.08.2009";"";"22466";"0.0000";"0.0000";"0.0000"
"Гвинея-Биссау";"01.08.2009";"";"245";"0.0000";"0.0000";"0.0000"
"Гвинея-Биссау моб.Guinetel";"01.08.2009";"";"2457";"0.0000";"0.0000";"0.0000"
"Гвинея-Биссау моб.Orange";"01.08.2009";"";"2455";"0.0000";"0.0000";"0.0000"
"Гвинея-Биссау моб.Spacetel";"01.08.2009";"";"2456";"0.0000";"0.0000";"0.0000"
"Германия";"01.08.2009";"";"49";"0.0000";"0.0000";"0.0000"
"Германия моб.E-Plus";"01.08.2009";"";"4915:5,7; 491:63,78;";"0.0000";"0.0000";"0.0000"
"Германия моб.E-Plus роуминг";"01.08.2009";"";"49177";"0.0000";"0.0000";"0.0000"
"Германия моб.O2";"01.08.2009";"";"491:59,79;";"0.0000";"0.0000";"0.0000"
"Германия моб.O2 роуминг";"01.08.2009";"";"49176";"0.0000";"0.0000";"0.0000"
"Германия моб.T-Mobile";"01.08.2009";"";"491:51,60,70-71,75;";"0.0000";"0.0000";"0.0000"
"Германия моб.Vodafone";"01.08.2009";"";"491:52,62,73-74;";"0.0000";"0.0000";"0.0000"
"Германия моб.Vodafone роуминг";"01.08.2009";"";"49172";"0.0000";"0.0000";"0.0000"
"Германия моб.др.";"01.08.2009";"";"4970:0-1;";"0.0000";"0.0000";"0.0000"
"Германия, мобильные";"01.08.2009";"";"49158";"0.0000";"0.0000";"0.0000"
"Германия мобильные";"01.08.2009";"";"4915:3-4; 49161";"0.0000";"0.0000";"0.0000"
"Гибралтар";"01.08.2009";"";"350";"0.0000";"0.0000";"0.0000"
"Гибралтар, мобильные";"01.08.2009";"";"3505:0-1,4,6-8; 35060";"0.0000";"0.0000";"0.0000"
"Гондурас";"01.08.2009";"";"504";"0.0000";"0.0000";"0.0000"
"Гондурас моб.";"01.08.2009";"";"504:3,8-9;";"0.0000";"0.0000";"0.0000"
"Гондурас мобильные";"01.08.2009";"";"504721:4-9; 50472:40,50-52;";"0.0000";"0.0000";"0.0000"
"Гонконг";"01.08.2009";"";"852";"0.0000";"0.0000";"0.0000"
"Гонконг моб.";"01.08.2009";"";"852:17,48-49,51,53-54,56,59,6,9;";"0.0000";"0.0000";"0.0000"
"Гренада";"01.08.2009";"";"1473";"0.0000";"0.0000";"0.0000"
"Гренада мобильные";"01.08.2009";"";"14734:03-10,14-22,412-419,49,56-59; 147353:3-8;";"0.0000";"0.0000";"0.0000"
"Гренландия";"01.08.2009";"";"299";"0.0000";"0.0000";"0.0000"
"Гренландия моб";"01.08.2009";"";"299:2,4-5;";"0.0000";"0.0000";"0.0000"
"Греция";"01.08.2009";"";"30";"0.0000";"0.0000";"0.0000"
"Греция Афины";"01.08.2009";"";"3021";"0.0000";"0.0000";"0.0000"
"Греция моб.Cosmote";"01.08.2009";"";"3069:7-8;";"0.0000";"0.0000";"0.0000"
"Греция моб.Vodafone";"01.08.2009";"";"3069:4-5;";"0.0000";"0.0000";"0.0000"
"Греция моб.Wind";"01.08.2009";"";"3069:0,3,9;";"0.0000";"0.0000";"0.0000"
"Грузия";"01.08.2009";"";"995";"0.0000";"0.0000";"0.0000"
"Грузия Magti сеть";"01.08.2009";"";"99590";"0.0000";"0.0000";"0.0000"
"Грузия Абхазия";"01.08.2009";"";"99544";"0.0000";"0.0000";"0.0000"
"Грузия моб";"01.08.2009";"";"9957";"0.0000";"0.0000";"0.0000"
"Грузия, мобильные";"01.08.2009";"";"995:14,55,57-58,77,79,91,93,95-99;";"0.0000";"0.0000";"0.0000"
"Грузия мобильные";"01.08.2009";"";"9959";"0.0000";"0.0000";"0.0000"
"Грузия специальные сервисы";"01.08.2009";"";"99576";"0.0000";"0.0000";"0.0000"
"Грузия Тбилиси";"01.08.2009";"";"99532";"0.0000";"0.0000";"0.0000"
"Гуам";"01.08.2009";"";"1671";"0.0000";"0.0000";"0.0000"
"Дания";"01.08.2009";"";"45";"0.0000";"0.0000";"0.0000"
"Дания моб Telenor";"01.08.2009";"";"45526:0,2,6; 45527:0-7; 45528:0,2,8;";"0.0000";"0.0000";"0.0000"
"Дания моб.Hi3G";"01.08.2009";"";"4542:83,91-92,94-95; 45521:1-2; 45:535,605;";"0.0000";"0.0000";"0.0000"
"Дания моб.TDC";"01.08.2009";"";"45506:0-1; 4552:20,30,40,50;";"0.0000";"0.0000";"0.0000"
"Дания моб.Telenor";"01.08.2009";"";"4520:6-9; 45:319,405-409,424-425,4260,4270,4280-4281,4284-4285,4287-4289,4293,5210,5222,5225,5233,5242,5244,529,5333,539,606-608,618-619,711;";"0.0000";"0.0000";"0.0000"
"Дания моб.Telia";"01.08.2009";"";"45:2395,421-423,4276-4279,4282,4286,4296-4299,5188-5189,521-524,5319,532,534,601-604,6146;";"0.0000";"0.0000";"0.0000"
"Дания моб.др.";"01.08.2009";"";"45:259,31312,318,4290,6098-6099;";"0.0000";"0.0000";"0.0000"
"Дания, мобильные";"01.08.2009";"";"4522:1-9; 4525:1-8; 4526:1-9; 4527:1-9; 4528:1-9; 4531:1-2,30,310-311,313-319,32-39,4-7; 4541:1-9; 4550:1-5,62-69,7-9; 45525:2-3,5; 45531:0-8; 45533:0-2,4-9; 45:5360,6090-6097,611-613;";"0.0000";"0.0000";"0.0000"
"Дания мобильные TDC";"01.08.2009";"";"4520:1-5; 4521:1-9; 4523:1-8,90-94,96-99; 4524:1-9; 4529:1-9; 4530:1-9; 4540:1-4; 4551:1-7,80-87,9; 45614:0-5,7-9; 4561:5-7;";"0.0000";"0.0000";"0.0000"
"Демократическая Республика Конго";"01.08.2009";"";"243,24378";"0.0000";"0.0000";"0.0000"
"Джибути";"01.08.2009";"";"253";"0.0000";"0.0000";"0.0000"
"Джибути моб";"01.08.2009";"";"253:6,8;";"0.0000";"0.0000";"0.0000"
"Диего Гарсия";"01.08.2009";"";"246";"0.0000";"0.0000";"0.0000"
"Доминика";"01.08.2009";"";"1767";"0.0000";"0.0000";"0.0000"
"Доминиканская Республика";"01.08.2009";"";"18:09,29;";"0.0000";"0.0000";"0.0000"
"Египет";"01.08.2009";"";"20";"0.0000";"0.0000";"0.0000"
"Египет моб.Etisalat";"01.08.2009";"";"2011";"0.0000";"0.0000";"0.0000"
"Египет моб.MobiNil";"01.08.2009";"";"201:2,7-8;";"0.0000";"0.0000";"0.0000"
"Египет моб.Vodafone";"01.08.2009";"";"2019";"0.0000";"0.0000";"0.0000"
"Египет моб.Vodafone роуминг";"01.08.2009";"";"201:0,6;";"0.0000";"0.0000";"0.0000"
"Заир мобильные";"01.08.2009";"";"2439:7-9;";"0.0000";"0.0000";"0.0000"
"Заир мобильные A";"01.08.2009";"";"2438:1,4-5,8-9;";"0.0000";"0.0000";"0.0000"
"Замбия";"01.08.2009";"";"260";"0.0000";"0.0000";"0.0000"
"Замбия моб";"01.08.2009";"";"2609";"0.0000";"0.0000";"0.0000"
"Западное Самоа";"01.08.2009";"";"685";"0.0000";"0.0000";"0.0000"
"Западное Самоа мобильные";"01.08.2009";"";"6857";"0.0000";"0.0000";"0.0000"
"Зимбабве";"01.08.2009";"";"263";"0.0000";"0.0000";"0.0000"
"Зимбабве моб Econet";"01.08.2009";"";"26391";"0.0000";"0.0000";"0.0000"
"Зимбабве моб Telecel";"01.08.2009";"";"26323";"0.0000";"0.0000";"0.0000"
"Зимбабве моб.NetOne";"01.08.2009";"";"26311";"0.0000";"0.0000";"0.0000"
"Зимбабве Хараре";"01.08.2009";"";"2634";"0.0000";"0.0000";"0.0000"
"Израиль";"01.08.2009";"";"972";"0.0000";"0.0000";"0.0000"
"Израиль моб.";"01.08.2009";"";"972:5-6;";"0.0000";"0.0000";"0.0000"
"Израиль, мобильные";"01.08.2009";"";"97215:15,35;";"0.0000";"0.0000";"0.0000"
"Израиль Палестинская национальная автономия";"01.08.2009";"";"972:22,42,82,92;";"0.0000";"0.0000";"0.0000"
"Израиль Палестинская национальная автономия моб.";"01.08.2009";"";"97259";"0.0000";"0.0000";"0.0000"
"Израиль Тель-Авив";"01.08.2009";"";"9723";"0.0000";"0.0000";"0.0000"
"Индия";"01.08.2009";"";"91";"0.0000";"0.0000";"0.0000"
"Индия Ахмедабад";"01.08.2009";"";"9179";"0.0000";"0.0000";"0.0000"
"Индия Бангалор";"01.08.2009";"";"9180";"0.0000";"0.0000";"0.0000"
"Индия Барода";"01.08.2009";"";"91265";"0.0000";"0.0000";"0.0000"
"Индия Бомбей";"01.08.2009";"";"9122";"0.0000";"0.0000";"0.0000"
"Индия Дели";"01.08.2009";"";"9111";"0.0000";"0.0000";"0.0000"
"Индия Калькутта";"01.08.2009";"";"9133";"0.0000";"0.0000";"0.0000"
"Индия Керала";"01.08.2009";"";"91484";"0.0000";"0.0000";"0.0000"
"Индия Мадрас";"01.08.2009";"";"9144";"0.0000";"0.0000";"0.0000"
"Индия моб. BSNL";"01.08.2009";"";"9194";"0.0000";"0.0000";"0.0000"
"Индия моб. др.";"01.08.2009";"";"919";"0.0000";"0.0000";"0.0000"
"Индия Пуна";"01.08.2009";"";"9120";"0.0000";"0.0000";"0.0000"
"Индия Хайдерабад";"01.08.2009";"";"9140";"0.0000";"0.0000";"0.0000"
"Индонезия";"01.08.2009";"";"62,62333";"0.0000";"0.0000";"0.0000"
"Индонезия Бандунг";"01.08.2009";"";"6222";"0.0000";"0.0000";"0.0000"
"Индонезия Батам";"01.08.2009";"";"62778";"0.0000";"0.0000";"0.0000"
"Индонезия Денпасар";"01.08.2009";"";"62361";"0.0000";"0.0000";"0.0000"
"Индонезия Джакарта";"01.08.2009";"";"6221";"0.0000";"0.0000";"0.0000"
"Индонезия Джембер";"01.08.2009";"";"62331";"0.0000";"0.0000";"0.0000"
"Индонезия Мадиун";"01.08.2009";"";"62351";"0.0000";"0.0000";"0.0000"
"Индонезия Маланг";"01.08.2009";"";"62341";"0.0000";"0.0000";"0.0000"
"Индонезия Медан";"01.08.2009";"";"6261";"0.0000";"0.0000";"0.0000"
"Индонезия моб.Exelcom";"01.08.2009";"";"6281:7-9; 628:59,77-78;";"0.0000";"0.0000";"0.0000"
"Индонезия моб.Indosat";"01.08.2009";"";"6281:4-6; 6285:5-8;";"0.0000";"0.0000";"0.0000"
"Индонезия моб.Telkomsel";"01.08.2009";"";"6281:1-3; 6285:2-3;";"0.0000";"0.0000";"0.0000"
"Индонезия моб.др.";"01.08.2009";"";"628";"0.0000";"0.0000";"0.0000"
"Индонезия (мобильные)";"01.08.2009";"";"6289:6-7;";"0.0000";"0.0000";"0.0000"
"Индонезия мобильные";"01.08.2009";"";"62:274,342,352,354-355,831;";"0.0000";"0.0000";"0.0000"
"Индонезия мобильные ON-NET";"01.08.2009";"";"628:38,88-89,98-99;";"0.0000";"0.0000";"0.0000"
"Индонезия Соло";"01.08.2009";"";"62271";"0.0000";"0.0000";"0.0000"
"Индонезия Сурабая";"01.08.2009";"";"6231";"0.0000";"0.0000";"0.0000"
"Индонезия фикс.";"01.08.2009";"";"6288:5-7;";"0.0000";"0.0000";"0.0000"
"Инмарсат EAST ATLANTIC (ROC)";"01.08.2009";"";"871";"0.0000";"0.0000";"0.0000"
"Инмарсат India Ocean (ROC)";"01.08.2009";"";"873";"0.0000";"0.0000";"0.0000"
"Инмарсат Pacific Ocean (ROC)";"01.08.2009";"";"872";"0.0000";"0.0000";"0.0000"
"Инмарсат WEST ATLANTIC (ROC)";"01.08.2009";"";"874";"0.0000";"0.0000";"0.0000"
"Иордания";"01.08.2009";"";"962";"0.0000";"0.0000";"0.0000"
"Иордания Амман";"01.08.2009";"";"9626";"0.0000";"0.0000";"0.0000"
"Иордания моб.";"01.08.2009";"";"9627";"0.0000";"0.0000";"0.0000"
"Иордания мобильные";"01.08.2009";"";"9627:4,7-9;";"0.0000";"0.0000";"0.0000"
"Ирак";"01.08.2009";"";"964";"0.0000";"0.0000";"0.0000"
"Ирак Багдад";"01.08.2009";"";"9641";"0.0000";"0.0000";"0.0000"
"Ирак моб SanaTel";"01.08.2009";"";"96473";"0.0000";"0.0000";"0.0000"
"Ирак моб.Asia";"01.08.2009";"";"96477";"0.0000";"0.0000";"0.0000"
"Ирак моб.Korek";"01.08.2009";"";"96475";"0.0000";"0.0000";"0.0000"
"Ирак моб.Zain";"01.08.2009";"";"9647:8-9;";"0.0000";"0.0000";"0.0000"
"Ирак мобильные";"01.08.2009";"";"9647:0-2,4,60;";"0.0000";"0.0000";"0.0000"
"Иран";"01.08.2009";"";"98";"0.0000";"0.0000";"0.0000"
"Иран моб.";"01.08.2009";"";"989";"0.0000";"0.0000";"0.0000"
"Иран Тегеран";"01.08.2009";"";"9821";"0.0000";"0.0000";"0.0000"
"Ирландия";"01.08.2009";"";"353,35389";"0.0000";"0.0000";"0.0000"
"Ирландия моб.Hi3G";"01.08.2009";"";"35383";"0.0000";"0.0000";"0.0000"
"Ирландия моб.Meteor";"01.08.2009";"";"35385";"0.0000";"0.0000";"0.0000"
"Ирландия моб.Vodafone";"01.08.2009";"";"3538:2,7;";"0.0000";"0.0000";"0.0000"
"Ирландия, мобильные";"01.08.2009";"";"353:1,88;";"0.0000";"0.0000";"0.0000"
"Ирландия моб.О2";"01.08.2009";"";"35386";"0.0000";"0.0000";"0.0000"
"Ирландия универсальный доступ";"01.08.2009";"";"353818";"0.0000";"0.0000";"0.0000"
"Исландия";"01.08.2009";"";"354";"0.0000";"0.0000";"0.0000"
"Исландия моб IMC";"01.08.2009";"";"3546:30,50;";"0.0000";"0.0000";"0.0000"
"Исландия моб Nova";"01.08.2009";"";"35477:0-3;";"0.0000";"0.0000";"0.0000"
"Исландия моб.Siminn";"01.08.2009";"";"35463:1-2,7; 35482:6-9; 3548:3-9;";"0.0000";"0.0000";"0.0000"
"Исландия моб.Vodafone";"01.08.2009";"";"3546:2,59,6-9; 35482:0-5;";"0.0000";"0.0000";"0.0000"
"Исландия моб.Zero Nine";"01.08.2009";"";"354:380,655;";"0.0000";"0.0000";"0.0000"
"Исландия моб.др.";"01.08.2009";"";"35438:8-9;";"0.0000";"0.0000";"0.0000"
"Исландия, мобильные";"01.08.2009";"";"3546:1,4,42,52;";"0.0000";"0.0000";"0.0000"
"Испания";"01.08.2009";"";"34";"0.0000";"0.0000";"0.0000"
"Испания моб.Amena";"01.08.2009";"";"346:05,15,25,35,45,51-55,57-58,65,75,85,91-92,95;";"0.0000";"0.0000";"0.0000"
"Испания моб.Amena роуминг";"01.08.2009";"";"34656";"0.0000";"0.0000";"0.0000"
"Испания моб.Telefonica (Movistar)";"01.08.2009";"";"3460:6,8; 3461:6,8; 3462:0,6,8; 3463:6,8; 3464:22,6; 346:48-50,59-60,688,69,76,79-80,86,89,96,99;";"0.0000";"0.0000";"0.0000"
"Испания моб.Telefonica (Movistar) роуминг";"01.08.2009";"";"346:09,19,29-30,39,90;";"0.0000";"0.0000";"0.0000"
"Испания моб.Vodafone";"01.08.2009";"";"346:00,111,116,17,27,34,37,47,61-64,66-67,70-71,77-78,846,87,886,888,981;";"0.0000";"0.0000";"0.0000"
"Испания моб.Vodafone роуминг";"01.08.2009";"";"346:07,10,97;";"0.0000";"0.0000";"0.0000"
"Испания моб.Xfera";"01.08.2009";"";"346:22,33;";"0.0000";"0.0000";"0.0000"
"Испания, мобильные";"01.08.2009";"";"34601:0-2; 346:03,321,400-401,441-442,444,720-724,931-939;";"0.0000";"0.0000";"0.0000"
"Италия";"01.08.2009";"";"39";"0.0000";"0.0000";"0.0000"
"Италия моб Wind";"01.08.2009";"";"3938:0,8-9;";"0.0000";"0.0000";"0.0000"
"Италия моб.Hi3G";"01.08.2009";"";"393:73,9;";"0.0000";"0.0000";"0.0000"
"Италия моб.Omnitel (Vodafone)";"01.08.2009";"";"393:4,77,83;";"0.0000";"0.0000";"0.0000"
"Италия моб.TIM";"01.08.2009";"";"393:3,6,70;";"0.0000";"0.0000";"0.0000"
"Италия моб.Wind";"01.08.2009";"";"393:2,8;";"0.0000";"0.0000";"0.0000"
"Италия мобильные";"01.08.2009";"";"3931";"0.0000";"0.0000";"0.0000"
"Италия мобильные WIND";"01.08.2009";"";"39387";"0.0000";"0.0000";"0.0000"
"Йемен";"01.08.2009";"";"967";"0.0000";"0.0000";"0.0000"
"Йемен мобильные";"01.08.2009";"";"9677";"0.0000";"0.0000";"0.0000"
"Кабо-Верде";"01.08.2009";"";"238";"0.0000";"0.0000";"0.0000"
"Кабо-Верде моб.";"01.08.2009";"";"2389";"0.0000";"0.0000";"0.0000"
"Казахстан";"01.08.2009";"";"771,771:2-6,8; 772,772:1,3-4,6-8;";"0.0000";"0.0000";"0.0000"
"Казахстан Актау";"01.08.2009";"";"77292";"0.0000";"0.0000";"0.0000"
"Казахстан Актюбинск";"01.08.2009";"";"77132";"0.0000";"0.0000";"0.0000"
"Казахстан Алматы";"01.08.2009";"";"7727:2-3;";"0.0000";"0.0000";"0.0000"
"Казахстан Астана";"01.08.2009";"";"77172";"0.0000";"0.0000";"0.0000"
"Казахстан Атырау";"01.08.2009";"";"77122";"0.0000";"0.0000";"0.0000"
"Казахстан Боровое";"01.08.2009";"";"771630";"0.0000";"0.0000";"0.0000"
"Казахстан, Джезказган";"01.08.2009";"";"77102";"0.0000";"0.0000";"0.0000"
"Казахстан Караганда";"01.08.2009";"";"77212";"0.0000";"0.0000";"0.0000"
"Казахстан Кокчетав";"01.08.2009";"";"77162";"0.0000";"0.0000";"0.0000"
"Казахстан Костанай";"01.08.2009";"";"77142";"0.0000";"0.0000";"0.0000"
"Казахстан Кызылорда";"01.08.2009";"";"77242";"0.0000";"0.0000";"0.0000"
"Казахстан моб.Altel";"01.08.2009";"";"7700";"0.0000";"0.0000";"0.0000"
"Казахстан моб.KarTel";"01.08.2009";"";"77:05,77;";"0.0000";"0.0000";"0.0000"
"Казахстан моб.K'Cell";"01.08.2009";"";"770:1-2;";"0.0000";"0.0000";"0.0000"
"Казахстан моб.Telecom Service";"01.08.2009";"";"7707";"0.0000";"0.0000";"0.0000"
"Казахстан Павлодар";"01.08.2009";"";"77182";"0.0000";"0.0000";"0.0000"
"Казахстан Петропавловск";"01.08.2009";"";"77152";"0.0000";"0.0000";"0.0000"
"Казахстан Семипалатинск";"01.08.2009";"";"77222";"0.0000";"0.0000";"0.0000"
"Казахстан Степаногорск";"01.08.2009";"";"771645";"0.0000";"0.0000";"0.0000"
"Казахстан Талдыкорган";"01.08.2009";"";"77282";"0.0000";"0.0000";"0.0000"
"Казахстан Тараз";"01.08.2009";"";"77262";"0.0000";"0.0000";"0.0000"
"Казахстан Темиртау";"01.08.2009";"";"77213:6,9;";"0.0000";"0.0000";"0.0000"
"Казахстан Уральск";"01.08.2009";"";"77112";"0.0000";"0.0000";"0.0000"
"Казахстан УстьКаменогорск";"01.08.2009";"";"77232";"0.0000";"0.0000";"0.0000"
"Казахстан Шимкент";"01.08.2009";"";"77252";"0.0000";"0.0000";"0.0000"
"Казахстан Щукинск";"01.08.2009";"";"771636";"0.0000";"0.0000";"0.0000"
"Каймановы о-ва";"01.08.2009";"";"1345";"0.0000";"0.0000";"0.0000"
"Камбоджа";"01.08.2009";"";"855";"0.0000";"0.0000";"0.0000"
"Камбоджа моб.";"01.08.2009";"";"855:1,9;";"0.0000";"0.0000";"0.0000"
"Камбоджа мобильные";"01.08.2009";"";"8558:1,3-4,9;";"0.0000";"0.0000";"0.0000"
"Камерун";"01.08.2009";"";"237";"0.0000";"0.0000";"0.0000"
"Камерун Дуала";"01.08.2009";"";"2374:2-3;";"0.0000";"0.0000";"0.0000"
"Камерун Моб";"01.08.2009";"";"2375";"0.0000";"0.0000";"0.0000"
"Камерун моб.MTN";"01.08.2009";"";"2377";"0.0000";"0.0000";"0.0000"
"Камерун моб.Orange";"01.08.2009";"";"2379";"0.0000";"0.0000";"0.0000"
"Камерун моб.др.";"01.08.2009";"";"2376";"0.0000";"0.0000";"0.0000"
"Камерун мобильные";"01.08.2009";"";"2374:0-1,4-9;";"0.0000";"0.0000";"0.0000"
"Канада";"01.08.2009";"";"12:04,26,50,89; 1306,14:03,16,18,38,50; 15:06,14,19,81,87; 16:04,13,47; 170:5,9; 17:78,80; 18:07,19; 190:2,5;";"0.0000";"0.0000";"0.0000"
"Канада Северо-Западные территории";"01.08.2009";"";"1867";"0.0000";"0.0000";"0.0000"
"Катар";"01.08.2009";"";"974,9742";"0.0000";"0.0000";"0.0000"
"Катар моб.";"01.08.2009";"";"974:3,5-7;";"0.0000";"0.0000";"0.0000"
"Катар мобильные";"01.08.2009";"";"97412";"0.0000";"0.0000";"0.0000"
"Кения";"01.08.2009";"";"254";"0.0000";"0.0000";"0.0000"
"Кения моб.Celtel";"01.08.2009";"";"25473";"0.0000";"0.0000";"0.0000"
"Кения моб.Orange";"01.08.2009";"";"25477";"0.0000";"0.0000";"0.0000"
"Кения моб.Safaricom";"01.08.2009";"";"2547:1-2;";"0.0000";"0.0000";"0.0000"
"Кения моб.др.";"01.08.2009";"";"2547";"0.0000";"0.0000";"0.0000"
"Кения, мобильные";"01.08.2009";"";"25475:0-2;";"0.0000";"0.0000";"0.0000"
"Кения Момбаса";"01.08.2009";"";"254:11,41;";"0.0000";"0.0000";"0.0000"
"Кения Найроби";"01.08.2009";"";"25420";"0.0000";"0.0000";"0.0000"
"Кипр";"01.08.2009";"";"357";"0.0000";"0.0000";"0.0000"
"Кипр моб.MTN";"01.08.2009";"";"357:1219,96;";"0.0000";"0.0000";"0.0000"
"Кипр моб.Vodafone";"01.08.2009";"";"357:1239,97,99;";"0.0000";"0.0000";"0.0000"
"Кипр мобильные";"01.08.2009";"";"3577777";"0.0000";"0.0000";"0.0000"
"Кипр мобильные Areeva";"01.08.2009";"";"3571:36,90;";"0.0000";"0.0000";"0.0000"
"Кипр специальные сервисы";"01.08.2009";"";"3577:00,77;";"0.0000";"0.0000";"0.0000"
"Кирибати";"01.08.2009";"";"686";"0.0000";"0.0000";"0.0000"
"Китай";"01.08.2009";"";"86";"0.0000";"0.0000";"0.0000"
"Колумбия";"01.08.2009";"";"57,5723";"0.0000";"0.0000";"0.0000"
"Колумбия Богота";"01.08.2009";"";"571:2-7;";"0.0000";"0.0000";"0.0000"
"Колумбия Другие города";"01.08.2009";"";"5753:2-8;";"0.0000";"0.0000";"0.0000"
"Колумбия Кали";"01.08.2009";"";"572:4-6,88-89;";"0.0000";"0.0000";"0.0000"
"Колумбия Медельин";"01.08.2009";"";"574:2-5;";"0.0000";"0.0000";"0.0000"
"Колумбия моб.";"01.08.2009";"";"573";"0.0000";"0.0000";"0.0000"
"Колумбия моб.Comcel";"01.08.2009";"";"5731:0-4; 5732:0-1;";"0.0000";"0.0000";"0.0000"
"Колумбия моб.Movistar";"01.08.2009";"";"5731:5-8;";"0.0000";"0.0000";"0.0000"
"Колумбия моб.Ola";"01.08.2009";"";"5730:0-1,4;";"0.0000";"0.0000";"0.0000"
"Колумбия Пальмира";"01.08.2009";"";"5722:7-8;";"0.0000";"0.0000";"0.0000"
"Колумбия Перейра";"01.08.2009";"";"5763:1-5;";"0.0000";"0.0000";"0.0000"
"Коморские и Майотт о-ва";"01.08.2009";"";"269";"0.0000";"0.0000";"0.0000"
"Коморские острова";"01.08.2009";"";"2697";"0.0000";"0.0000";"0.0000"
"Коморские острова мобильные";"01.08.2009";"";"2693";"0.0000";"0.0000";"0.0000"
"Конго";"01.08.2009";"";"242";"0.0000";"0.0000";"0.0000"
"Конго моб.Celtel";"01.08.2009";"";"242:5,7;";"0.0000";"0.0000";"0.0000"
"Конго моб.MTN";"01.08.2009";"";"2426";"0.0000";"0.0000";"0.0000"
"Конго моб.Warid";"01.08.2009";"";"2424";"0.0000";"0.0000";"0.0000"
"Корейская Республика Сеул";"01.08.2009";"";"822";"0.0000";"0.0000";"0.0000"
"Корея Северная";"01.08.2009";"";"850";"0.0000";"0.0000";"0.0000"
"Корея Южная";"01.08.2009";"";"82";"0.0000";"0.0000";"0.0000"
"Корея Южная моб.";"01.08.2009";"";"821";"0.0000";"0.0000";"0.0000"
"Коста Рика моб";"01.08.2009";"";"5063";"0.0000";"0.0000";"0.0000"
"Коста-Рика";"01.08.2009";"";"506";"0.0000";"0.0000";"0.0000"
"Коста-Рика моб.";"01.08.2009";"";"5068";"0.0000";"0.0000";"0.0000"
"Кот-д-Ивуар";"01.08.2009";"";"225";"0.0000";"0.0000";"0.0000"
"Кот-д'Ивуар Абиджан";"01.08.2009";"";"2252";"0.0000";"0.0000";"0.0000"
"Кот-д'Ивуар моб Comium";"01.08.2009";"";"22568";"0.0000";"0.0000";"0.0000"
"Кот-д-Ивуар моб.A-Cell";"01.08.2009";"";"2250:1-3;";"0.0000";"0.0000";"0.0000"
"Кот-д-Ивуар моб.Comium";"01.08.2009";"";"2256:6-7;";"0.0000";"0.0000";"0.0000"
"Кот-д-Ивуар моб.MTN";"01.08.2009";"";"2250:4-6; 2254:4-6;";"0.0000";"0.0000";"0.0000"
"Кот-д-Ивуар моб.Orange";"01.08.2009";"";"2250:7-9; 2254:7-9;";"0.0000";"0.0000";"0.0000"
"Кот-д-Ивуар моб.Oricel";"01.08.2009";"";"22560";"0.0000";"0.0000";"0.0000"
"Куба";"01.08.2009";"";"53";"0.0000";"0.0000";"0.0000"
"Куба Гуантанамо";"01.08.2009";"";"5399";"0.0000";"0.0000";"0.0000"
"Кувейт";"01.08.2009";"";"965,9654:0,4; 9655:0-1,5,8-9;";"0.0000";"0.0000";"0.0000"
"Кувейт моб.";"01.08.2009";"";"965:6-7,9;";"0.0000";"0.0000";"0.0000"
"Кувейт мобильные";"01.08.2009";"";"9657:0,7;";"0.0000";"0.0000";"0.0000"
"Кука о-ва";"01.08.2009";"";"682";"0.0000";"0.0000";"0.0000"
"Кыргызстан";"01.08.2009";"";"996";"0.0000";"0.0000";"0.0000"
"Кыргызстан Бишкек";"01.08.2009";"";"996312";"0.0000";"0.0000";"0.0000"
"Кыргызстан моб Aktel";"01.08.2009";"";"996545";"0.0000";"0.0000";"0.0000"
"Кыргызстан моб Katel";"01.08.2009";"";"99651:2,5,7;";"0.0000";"0.0000";"0.0000"
"Кыргызстан моб Sky Mobile";"01.08.2009";"";"99677";"0.0000";"0.0000";"0.0000"
"Кыргызстан моб Winline";"01.08.2009";"";"99656";"0.0000";"0.0000";"0.0000"
"Кыргызстан моб.Aktel";"01.08.2009";"";"996543";"0.0000";"0.0000";"0.0000"
"Кыргызстан моб.Megacom";"01.08.2009";"";"99655";"0.0000";"0.0000";"0.0000"
"Кыргызстан моб.Nur Telecom";"01.08.2009";"";"99670";"0.0000";"0.0000";"0.0000"
"Кыргызстан моб.Sky Mobile";"01.08.2009";"";"99677:0,2-3;";"0.0000";"0.0000";"0.0000"
"Кыргызстан моб.Sotel";"01.08.2009";"";"99657";"0.0000";"0.0000";"0.0000"
"Кыргызстан, мобильные";"01.08.2009";"";"9965157";"0.0000";"0.0000";"0.0000"
"Лаос";"01.08.2009";"";"856";"0.0000";"0.0000";"0.0000"
"Латвия";"01.08.2009";"";"371";"0.0000";"0.0000";"0.0000"
"Латвия моб.Bite";"01.08.2009";"";"371220:5-9; 37122:1,39,5,80-84; 371255:0-5; 371258:5-8; 371272:0-1,8-9; 37127:3-5;";"0.0000";"0.0000";"0.0000"
"Латвия моб.CSC";"01.08.2009";"";"3712840";"0.0000";"0.0000";"0.0000"
"Латвия моб.ECO Solutions";"01.08.2009";"";"3712769";"0.0000";"0.0000";"0.0000"
"Латвия моб.LMT";"01.08.2009";"";"3712:02,200-204,24,54,556-559,61-66,78,83,849,86-87,91-94;";"0.0000";"0.0000";"0.0000"
"Латвия моб.Rigatta";"01.08.2009";"";"3712010";"0.0000";"0.0000";"0.0000"
"Латвия моб.Telegrupa Baltija";"01.08.2009";"";"371272:2-6;";"0.0000";"0.0000";"0.0000"
"Латвия моб.Telekom Baltija";"01.08.2009";"";"371258:0-4,9;";"0.0000";"0.0000";"0.0000"
"Латвия моб.др.";"01.08.2009";"";"371630:3,9; 371631:1,3; 371632:1,8; 371633:1,9; 371634:1,7; 37163:50,61,65,71,77,79,81,89,91,99; 371640:1,9; 371641:1,8; 371642:1,9; 371643:1,3,7,9; 371644:1-2,6; 371645:1,8; 371646:1,7-8; 371647:1,9; 371648:1,8; 371650:1,9; 371651:1,8; 371652:1,8; 371653:1,9; 371654:1,8; 371656:1,3,7,9; 371657:1,7; 37165:79-80; 3716860";"0.0000";"0.0000";"0.0000"
"Латвия, мобильные";"01.08.2009";"";"371660:0-8; 3716610";"0.0000";"0.0000";"0.0000"
"Латвия, мобильные 2";"01.08.2009";"";"37127:6-7,9; 371810";"0.0000";"0.0000";"0.0000"
"Латвия моб.Теле 2";"01.08.2009";"";"37120:0,3; 371223:0-8; 3712:59-60,67-71,82,844-848,88,95-99;";"0.0000";"0.0000";"0.0000"
"Латвия специальные сервисы";"01.08.2009";"";"3716515:3,8-9; 3716850:1-2;";"0.0000";"0.0000";"0.0000"
"Латвия фикс. др.";"01.08.2009";"";"37166:66,999; 371671:5-6,9; 37167:23,48-49,63-65,660-666,669,69,71-72,78-79,85,87-88;";"0.0000";"0.0000";"0.0000"
"Лесото";"01.08.2009";"";"266";"0.0000";"0.0000";"0.0000"
"Лесото моб.";"01.08.2009";"";"266:5-6;";"0.0000";"0.0000";"0.0000"
"Либерия";"01.08.2009";"";"231";"0.0000";"0.0000";"0.0000"
"Либерия моб.Cellcom";"01.08.2009";"";"2317";"0.0000";"0.0000";"0.0000"
"Либерия моб.Comium";"01.08.2009";"";"2315";"0.0000";"0.0000";"0.0000"
"Либерия моб.Libercell";"01.08.2009";"";"2314";"0.0000";"0.0000";"0.0000"
"Либерия моб.LoneStar";"01.08.2009";"";"2316";"0.0000";"0.0000";"0.0000"
"Либерия мобильные";"01.08.2009";"";"2314:6-7;";"0.0000";"0.0000";"0.0000"
"Ливан";"01.08.2009";"";"961";"0.0000";"0.0000";"0.0000"
"Ливан моб.";"01.08.2009";"";"961:3,70-71;";"0.0000";"0.0000";"0.0000"
"Ливия";"01.08.2009";"";"218";"0.0000";"0.0000";"0.0000"
"Ливия моб.";"01.08.2009";"";"2189:1-2,4;";"0.0000";"0.0000";"0.0000"
"Литва";"01.08.2009";"";"370";"0.0000";"0.0000";"0.0000"
"Литва Вильнюс";"01.08.2009";"";"3705";"0.0000";"0.0000";"0.0000"
"Литва моб.Bite";"01.08.2009";"";"3706:3,40-44,49,5,60,81,85,89-90,99;";"0.0000";"0.0000";"0.0000"
"Литва моб.Omnitel";"01.08.2009";"";"3706:1-2,62-63,80,82,86-88,92-93,95-96,98;";"0.0000";"0.0000";"0.0000"
"Литва моб.Tele2";"01.08.2009";"";"3706:0,45-48,686,7,83-84;";"0.0000";"0.0000";"0.0000"
"Литва моб.др.";"01.08.2009";"";"3706";"0.0000";"0.0000";"0.0000"
"Литва мобильные Tele 2";"01.08.2009";"";"37067:0-8;";"0.0000";"0.0000";"0.0000"
"Лихтенштейн";"01.08.2009";"";"423";"0.0000";"0.0000";"0.0000"
"Лихтенштейн Моб";"01.08.2009";"";"4235";"0.0000";"0.0000";"0.0000"
"Лихтенштейн моб.";"01.08.2009";"";"4236";"0.0000";"0.0000";"0.0000"
"Лихтенштейн моб Mobilkom";"01.08.2009";"";"42379";"0.0000";"0.0000";"0.0000"
"Лихтенштейн моб Orange";"01.08.2009";"";"42378";"0.0000";"0.0000";"0.0000"
"Лихтенштейн моб Swissom";"01.08.2009";"";"42377";"0.0000";"0.0000";"0.0000"
"Лихтенштейн моб Tele2";"01.08.2009";"";"42376";"0.0000";"0.0000";"0.0000"
"Лихтенштейн моб.сервисы";"01.08.2009";"";"4237";"0.0000";"0.0000";"0.0000"
"Люксембург";"01.08.2009";"";"352";"0.0000";"0.0000";"0.0000"
"Люксембург моб.LUXGSM";"01.08.2009";"";"35262:1,8;";"0.0000";"0.0000";"0.0000"
"Люксембург моб.TANGO";"01.08.2009";"";"35269:1,8;";"0.0000";"0.0000";"0.0000"
"Люксембург моб.VOX";"01.08.2009";"";"35266:1,8;";"0.0000";"0.0000";"0.0000"
"Маврикий";"01.08.2009";"";"230";"0.0000";"0.0000";"0.0000"
"Мавритания";"01.08.2009";"";"222";"0.0000";"0.0000";"0.0000"
"Мадагаскар";"01.08.2009";"";"261";"0.0000";"0.0000";"0.0000"
"Мадагаскар моб.";"01.08.2009";"";"2613:0-4;";"0.0000";"0.0000";"0.0000"
"Мадейра";"01.08.2009";"";"351291";"0.0000";"0.0000";"0.0000"
"Макао";"01.08.2009";"";"853";"0.0000";"0.0000";"0.0000"
"Макао мобильные";"01.08.2009";"";"8536";"0.0000";"0.0000";"0.0000"
"Македония";"01.08.2009";"";"389";"0.0000";"0.0000";"0.0000"
"Македония Skopje";"01.08.2009";"";"3892";"0.0000";"0.0000";"0.0000"
"Македония моб.Cosmofon";"01.08.2009";"";"3897:5-6;";"0.0000";"0.0000";"0.0000"
"Македония моб.T-Mobile";"01.08.2009";"";"3897:0-2;";"0.0000";"0.0000";"0.0000"
"Македония моб.VIP Operator";"01.08.2009";"";"3897:7-8;";"0.0000";"0.0000";"0.0000"
"Малави";"01.08.2009";"";"265,265:4-5;";"0.0000";"0.0000";"0.0000"
"Малави моб";"01.08.2009";"";"265:8-9;";"0.0000";"0.0000";"0.0000"
"Малайзия";"01.08.2009";"";"60";"0.0000";"0.0000";"0.0000"
"Малайзия Куала-Лумпур";"01.08.2009";"";"603";"0.0000";"0.0000";"0.0000"
"Малайзия мобильные";"01.08.2009";"";"601:0-3,42-43,45-46,48-49,5-9;";"0.0000";"0.0000";"0.0000"
"Малайзия мобильные Maxis";"01.08.2009";"";"60147";"0.0000";"0.0000";"0.0000"
"Малдивские о-ва мобильные";"01.08.2009";"";"9608";"0.0000";"0.0000";"0.0000"
"Мали";"01.08.2009";"";"223";"0.0000";"0.0000";"0.0000"
"Мали Ikatel мобильные";"01.08.2009";"";"2233:0-4; 2234:0-1,4-7; 2235:0-4; 2236:0-4; 2238:5-9; 2239:2-4;";"0.0000";"0.0000";"0.0000"
"Мали Бамако";"01.08.2009";"";"22322";"0.0000";"0.0000";"0.0000"
"Мали моб";"01.08.2009";"";"2234";"0.0000";"0.0000";"0.0000"
"Мали моб.Orange";"01.08.2009";"";"2239:0-1;";"0.0000";"0.0000";"0.0000"
"Мали моб.Sotelma";"01.08.2009";"";"2239:8-9;";"0.0000";"0.0000";"0.0000"
"Мали мобильные";"01.08.2009";"";"2234:2-3,8-9; 2235:5-9; 2237:3-5,8;";"0.0000";"0.0000";"0.0000"
"Мали мобильные Malitel";"01.08.2009";"";"2236:5-9; 2239:5-7;";"0.0000";"0.0000";"0.0000"
"Мали мобильные Orange";"01.08.2009";"";"2237:6,9;";"0.0000";"0.0000";"0.0000"
"Мальдивы";"01.08.2009";"";"960";"0.0000";"0.0000";"0.0000"
"Мальдивы моб.Dhiraagu";"01.08.2009";"";"9607";"0.0000";"0.0000";"0.0000"
"Мальдивы моб.Wataniya";"01.08.2009";"";"9609";"0.0000";"0.0000";"0.0000"
"Мальта";"01.08.2009";"";"356";"0.0000";"0.0000";"0.0000"
"Мальта моб Go Mobile";"01.08.2009";"";"35679";"0.0000";"0.0000";"0.0000"
"Мальта моб 3G";"01.08.2009";"";"356777";"0.0000";"0.0000";"0.0000"
"Мальта мобильные";"01.08.2009";"";"356:72,92,94,99;";"0.0000";"0.0000";"0.0000"
"Марокко";"01.08.2009";"";"212";"0.0000";"0.0000";"0.0000"
"Марокко, Касабланка";"01.08.2009";"";"2122:0-1;";"0.0000";"0.0000";"0.0000"
"Марокко, мобильные";"01.08.2009";"";"2121:0-9; 2122:2,6-7; 2123:3-4,7; 2124:0-2,4-8; 2125:0-5; 212:58-79,92;";"0.0000";"0.0000";"0.0000"
"Мартиника";"01.08.2009";"";"596";"0.0000";"0.0000";"0.0000"
"Мартиника моб.";"01.08.2009";"";"596696";"0.0000";"0.0000";"0.0000"
"Маршалловы о-ва";"01.08.2009";"";"692";"0.0000";"0.0000";"0.0000"
"Мексика";"01.08.2009";"";"52";"0.0000";"0.0000";"0.0000"
"Мексика EQUAL ACCESS/TIER2";"01.08.2009";"";"52:222,351;";"0.0000";"0.0000";"0.0000"
"Мексика Гвадалахара";"01.08.2009";"";"5233";"0.0000";"0.0000";"0.0000"
"Мексика Мехико";"01.08.2009";"";"5255";"0.0000";"0.0000";"0.0000"
"Мексика моб.";"01.08.2009";"";"521";"0.0000";"0.0000";"0.0000"
"Мексика Монтеррей";"01.08.2009";"";"5281";"0.0000";"0.0000";"0.0000"
"Микронезия";"01.08.2009";"";"691";"0.0000";"0.0000";"0.0000"
"Мозамбик";"01.08.2009";"";"258";"0.0000";"0.0000";"0.0000"
"Мозамбик моб.Mcel";"01.08.2009";"";"25882";"0.0000";"0.0000";"0.0000"
"Мозамбик моб.Vodacom";"01.08.2009";"";"25884";"0.0000";"0.0000";"0.0000"
"Молдова";"01.08.2009";"";"373";"0.0000";"0.0000";"0.0000"
"Молдова моб.Moldcell";"01.08.2009";"";"3737:8-9;";"0.0000";"0.0000";"0.0000"
"Молдова моб.Moldtelecom";"01.08.2009";"";"37367:1-2;";"0.0000";"0.0000";"0.0000"
"Молдова моб.Orange Moldova";"01.08.2009";"";"3736:0,8-9;";"0.0000";"0.0000";"0.0000"
"Молдова, мобильные";"01.08.2009";"";"37365";"0.0000";"0.0000";"0.0000"
"Молдова моб.Приднестровье";"01.08.2009";"";"37377";"0.0000";"0.0000";"0.0000"
"Молдова Приднестровье";"01.08.2009";"";"37321:0,5-6,9; 37353:2-3; 37354:0,5; 37355:2,5-7,9; 37356:2,7;";"0.0000";"0.0000";"0.0000"
"Монако";"01.08.2009";"";"377";"0.0000";"0.0000";"0.0000"
"Монако моб.KFOR";"01.08.2009";"";"3774:4-5,7;";"0.0000";"0.0000";"0.0000"
"Монако моб.др.";"01.08.2009";"";"377:4,6;";"0.0000";"0.0000";"0.0000"
"Монголия";"01.08.2009";"";"976";"0.0000";"0.0000";"0.0000"
"Монголия моб";"01.08.2009";"";"9769";"0.0000";"0.0000";"0.0000"
"Монголия моб.";"01.08.2009";"";"9765:0,5;";"0.0000";"0.0000";"0.0000"
"Монголия, мобильные";"01.08.2009";"";"9768";"0.0000";"0.0000";"0.0000"
"Монгольская Народная Республика мобильные";"01.08.2009";"";"97656";"0.0000";"0.0000";"0.0000"
"Монтсеррат";"01.08.2009";"";"1664";"0.0000";"0.0000";"0.0000"
"Мьянма";"01.08.2009";"";"95";"0.0000";"0.0000";"0.0000"
"Мьянма мобильные";"01.08.2009";"";"959";"0.0000";"0.0000";"0.0000"
"Нагорный Карабах";"01.08.2009";"";"37447";"0.0000";"0.0000";"0.0000"
"Нагорный Карабах моб.";"01.08.2009";"";"37497";"0.0000";"0.0000";"0.0000"
"Намибия";"01.08.2009";"";"264";"0.0000";"0.0000";"0.0000"
"Намибия моб.";"01.08.2009";"";"2648:1,5;";"0.0000";"0.0000";"0.0000"
"Науру";"01.08.2009";"";"674";"0.0000";"0.0000";"0.0000"
"Непал";"01.08.2009";"";"977";"0.0000";"0.0000";"0.0000"
"Непал Катманду";"01.08.2009";"";"9771:4-6;";"0.0000";"0.0000";"0.0000"
"Непал моб.";"01.08.2009";"";"97798";"0.0000";"0.0000";"0.0000"
"Нигер";"01.08.2009";"";"227,2279:3-4,6;";"0.0000";"0.0000";"0.0000"
"Нигер,  мобильные";"01.08.2009";"";"22797";"0.0000";"0.0000";"0.0000"
"Нигер моб.Orange";"01.08.2009";"";"22790";"0.0000";"0.0000";"0.0000"
"Нигерия";"01.08.2009";"";"234";"0.0000";"0.0000";"0.0000"
"Нигерия RELTEL";"01.08.2009";"";"234248:0-2; 2344:248,648-652; 234824:8-9; 23484:48-52; 234948:0-1;";"0.0000";"0.0000";"0.0000"
"Нигерия Лагос";"01.08.2009";"";"2341,23414:0,15-16,31-32,35-37,80-81;";"0.0000";"0.0000";"0.0000"
"Нигерия моб.";"01.08.2009";"";"23480";"0.0000";"0.0000";"0.0000"
"Нигерия моб.Celtel";"01.08.2009";"";"234:708,802,808;";"0.0000";"0.0000";"0.0000"
"Нигерия моб.Globacom";"01.08.2009";"";"234:705,805,807;";"0.0000";"0.0000";"0.0000"
"Нигерия моб.Mtel";"01.08.2009";"";"234804";"0.0000";"0.0000";"0.0000"
"Нигерия моб.MTN";"01.08.2009";"";"23470:3,6; 23480:3,6;";"0.0000";"0.0000";"0.0000"
"Нигерия моб.Nitel";"01.08.2009";"";"23490";"0.0000";"0.0000";"0.0000"
"Нигерия мобильные";"01.08.2009";"";"2349";"0.0000";"0.0000";"0.0000"
"Нигерия мобильные Zoom";"01.08.2009";"";"234141:7-9; 234143:3-4,8-9; 2341:482,655-659,66,670-674; 2343:048,448,548,648,948; 23442:49-51; 2344:348,848; 2345:248,350,448,548,648,748; 2346:248,349,948; 23470:23,7; 234825:0-1; 2348:348,548,748,848; 234948:2-4;";"0.0000";"0.0000";"0.0000"
"Нидерландские Антильские о-ва";"01.08.2009";"";"599318:1,4; 5995:2,4; 59970:0-1; 5997:8-9; 5999:5-6;";"0.0000";"0.0000";"0.0000"
"Нидерланды";"01.08.2009";"";"31";"0.0000";"0.0000";"0.0000"
"Нидерланды моб.KPN";"01.08.2009";"";"3161:0,2-3; 3162:0,2-3; 316:30,51,57,65,83;";"0.0000";"0.0000";"0.0000"
"Нидерланды моб.KPN роуминг";"01.08.2009";"";"31653";"0.0000";"0.0000";"0.0000"
"Нидерланды моб.Orange";"01.08.2009";"";"316:18,38-39,48;";"0.0000";"0.0000";"0.0000"
"Нидерланды моб.Orange роуминг";"01.08.2009";"";"31628";"0.0000";"0.0000";"0.0000"
"Нидерланды моб.O2 (Telefort)";"01.08.2009";"";"3161:7,9; 316:33,44-45,47,49;";"0.0000";"0.0000";"0.0000"
"Нидерланды моб.O2 (Telefort) роуминг";"01.08.2009";"";"316:16,26;";"0.0000";"0.0000";"0.0000"
"Нидерланды моб.Tele 2";"01.08.2009";"";"316:36,40;";"0.0000";"0.0000";"0.0000"
"Нидерланды моб.T-Mobile";"01.08.2009";"";"316:14,34,41-43,81;";"0.0000";"0.0000";"0.0000"
"Нидерланды моб.T-Mobile роуминг";"01.08.2009";"";"31624";"0.0000";"0.0000";"0.0000"
"Нидерланды моб.Vodafone";"01.08.2009";"";"3161:1,5; 3162:1,5,7,9; 3163:1,7; 316:46,50,52,55;";"0.0000";"0.0000";"0.0000"
"Нидерланды моб.Vodafone роуминг";"01.08.2009";"";"31654";"0.0000";"0.0000";"0.0000"
"Нидерланды моб.др.";"01.08.2009";"";"316";"0.0000";"0.0000";"0.0000"
"Никарагуа";"01.08.2009";"";"505,5053:2-3; 50574";"0.0000";"0.0000";"0.0000"
"Никарагуа BELL SOUTH мобильные";"01.08.2009";"";"5058:6,8; 5059:5-9;";"0.0000";"0.0000";"0.0000"
"Никарагуа OTHER мобильные";"01.08.2009";"";"5054:0-4,9;";"0.0000";"0.0000";"0.0000"
"Никарагуа моб.";"01.08.2009";"";"505:75,8;";"0.0000";"0.0000";"0.0000"
"Никарагуа, мобильные";"01.08.2009";"";"5056";"0.0000";"0.0000";"0.0000"
"Никарагуа (мобильные)";"01.08.2009";"";"5053:5-6;";"0.0000";"0.0000";"0.0000"
"Никарагуа мобильные";"01.08.2009";"";"5056:7-8; 5058:0-1,7; 505:89-94;";"0.0000";"0.0000";"0.0000"
"Никарагуа мобильные BELL SOUTH";"01.08.2009";"";"5054:5-8;";"0.0000";"0.0000";"0.0000"
"Ниуэ";"01.08.2009";"";"683";"0.0000";"0.0000";"0.0000"
"Новая Зеландия";"01.08.2009";"";"64";"0.0000";"0.0000";"0.0000"
"Новая Зеландия моб.";"01.08.2009";"";"642";"0.0000";"0.0000";"0.0000"
"Новая Каледония";"01.08.2009";"";"687,6878:0-7,9;";"0.0000";"0.0000";"0.0000"
"Новая Каледония мобильные";"01.08.2009";"";"6877:6-9; 6879";"0.0000";"0.0000";"0.0000"
"Норвегия";"01.08.2009";"";"47,470:2-9;";"0.0000";"0.0000";"0.0000"
"Норвегия моб.Lycamobile";"01.08.2009";"";"47409:4-9; 47969:5-9;";"0.0000";"0.0000";"0.0000"
"Норвегия моб.NetCom";"01.08.2009";"";"47400:0-1; 47401:0-1,4; 4740:2-3,50,55,60-64; 47410:0-1,6-7; 47411:7-8; 4745:0-2,39,4,50-51,59,66-69,76-79,83-84,86,94; 4746:4,50,54,70,73-75; 47471:4-7; 47472:0-2; 474:744,833-834,837,840,849-850,859,893; 47:599,920,9210,9217,922,9237,924,9257,926,9277,928,9297,930,9317,932,9337,934,9357,936,9377,938,9391,9410-9412,942,9442-9443,9447-9449,9664,9692,980,9815,982,9837,984,9854,986,9876,988,9899;";"0.0000";"0.0000";"0.0000"
"Норвегия моб.Network Norway";"01.08.2009";"";"47467:8-9; 474835";"0.0000";"0.0000";"0.0000"
"Норвегия моб.Telenor";"01.08.2009";"";"47400:4-9; 47401:5-9; 47408:4-9; 4741:4-7,84-85; 47458:0-2,5,8-9; 4746:8,90-96; 47475:0-1; 4747:6,70-71,75-76,78,8,90,98-99; 4748:0-2,30,42; 47590:0-1; 4759:1-2; 4790:0-2,36,40-41,47,5-9; 4791:00,1,24,3,5-8,91,99; 47940:0-1,3,5; 47941:3-9; 47947:4-9; 4794:8,90,97-98; 4795:0-2,30,33,36,4,52,55,7-9; 47960:1,4,9; 47962:0,2-3; 47965:0-1; 47966:0-3; 479:689,70-71,740-743,746-749,75-77,795-799,910-912,915-916,92,95;";"0.0000";"0.0000";"0.0000"
"Норвегия моб.др.";"01.08.2009";"";"47:4,59,9;";"0.0000";"0.0000";"0.0000"
"Норвегия, мобильные";"01.08.2009";"";"4740:4,51-54,65-68,77,825-829,83; 47459:1,5,8-9; 47467:6-7; 47484:1,8; 47485:1-2; 47488:4-9; 47990:5-9;";"0.0000";"0.0000";"0.0000"
"Норвегия мобильные TELENOR";"01.08.2009";"";"47418:6-9; 4745:87,97; 47474:5-9; 474:797,894-899; 47:5902,9693-9694;";"0.0000";"0.0000";"0.0000"
"Норвегия, мобильные 2";"01.08.2009";"";"474:66,777,836;";"0.0000";"0.0000";"0.0000"
"Норвегия моб.специальные сервисы";"01.08.2009";"";"47:0,810,815;";"0.0000";"0.0000";"0.0000"
"Норфолк о-в";"01.08.2009";"";"6723";"0.0000";"0.0000";"0.0000"
"ОАЭ";"01.08.2009";"";"971";"0.0000";"0.0000";"0.0000"
"ОАЭ моб.";"01.08.2009";"";"9715:0,5-6;";"0.0000";"0.0000";"0.0000"
"Оман";"01.08.2009";"";"968";"0.0000";"0.0000";"0.0000"
"Оман моб.";"01.08.2009";"";"9689";"0.0000";"0.0000";"0.0000"
"Острова Фиджи мобильные";"01.08.2009";"";"679:7,83-84,9;";"0.0000";"0.0000";"0.0000"
"Пакистан";"01.08.2009";"";"92";"0.0000";"0.0000";"0.0000"
"Пакистан Исламабад";"01.08.2009";"";"9251";"0.0000";"0.0000";"0.0000"
"Пакистан Карачи";"01.08.2009";"";"9221";"0.0000";"0.0000";"0.0000"
"Пакистан Лахор";"01.08.2009";"";"9242";"0.0000";"0.0000";"0.0000"
"Пакистан моб.др.";"01.08.2009";"";"923";"0.0000";"0.0000";"0.0000"
"Палау";"01.08.2009";"";"680";"0.0000";"0.0000";"0.0000"
"Палестина";"01.08.2009";"";"970,970:22,42,82,92;";"0.0000";"0.0000";"0.0000"
"Палестина моб.";"01.08.2009";"";"97059";"0.0000";"0.0000";"0.0000"
"Панама";"01.08.2009";"";"507";"0.0000";"0.0000";"0.0000"
"Панама моб.";"01.08.2009";"";"5076";"0.0000";"0.0000";"0.0000"
"Панама, мобильные";"01.08.2009";"";"5072";"0.0000";"0.0000";"0.0000"
"Панама мобильные";"01.08.2009";"";"50765:0-3; 5076:55-65,69,7,80,84;";"0.0000";"0.0000";"0.0000"
"Панама мобильные Bell South";"01.08.2009";"";"50764";"0.0000";"0.0000";"0.0000"
"Панама мобильные Digicel";"01.08.2009";"";"50760:0-3;";"0.0000";"0.0000";"0.0000"
"Панама Панама город";"01.08.2009";"";"5073";"0.0000";"0.0000";"0.0000"
"Папуа Новая Гвинея";"01.08.2009";"";"675";"0.0000";"0.0000";"0.0000"
"Парагвай";"01.08.2009";"";"595";"0.0000";"0.0000";"0.0000"
"Парагвай Асенсьон";"01.08.2009";"";"59521";"0.0000";"0.0000";"0.0000"
"Парагвай, мобильные";"01.08.2009";"";"5959:6-9;";"0.0000";"0.0000";"0.0000"
"Перу";"01.08.2009";"";"51,5143:2-5; 5144:2-5; 5174:2-5;";"0.0000";"0.0000";"0.0000"
"Перу Лима";"01.08.2009";"";"511:2-5,61-62,65-69,7;";"0.0000";"0.0000";"0.0000"
"Перу мобильные";"01.08.2009";"";"5116:3-4;";"0.0000";"0.0000";"0.0000"
"Польша";"01.08.2009";"";"48,48:118,20,300,400;";"0.0000";"0.0000";"0.0000"
"Польша";"01.08.2009";"";"48802";"0.0000";"0.0000";"0.0000"
"Польша Варшава";"01.08.2009";"";"4822";"0.0000";"0.0000";"0.0000"
"Польша Моб";"01.08.2009";"";"486:0,4,6,9; 487:8-9; 4888";"0.0000";"0.0000";"0.0000"
"Польша моб Era";"01.08.2009";"";"48884:1-2;";"0.0000";"0.0000";"0.0000"
"Польша моб Orange";"01.08.2009";"";"48789";"0.0000";"0.0000";"0.0000"
"Польша моб.Centernet";"01.08.2009";"";"488811";"0.0000";"0.0000";"0.0000"
"Польша моб.Era";"01.08.2009";"";"4860:0,6,8; 4866:0,2,4,8; 4869:2,4,6,8; 48727:2-3; 4878:4,7-8; 48795:1-5; 4888:0,18,2,33,38,6,8-9;";"0.0000";"0.0000";"0.0000"
"Польша моб.Era роуминг";"01.08.2009";"";"4860:2,4;";"0.0000";"0.0000";"0.0000"
"Польша моб.Orange";"01.08.2009";"";"485:0-1; 48:690,780,786,795,797-798;";"0.0000";"0.0000";"0.0000"
"Польша моб.Plus";"01.08.2009";"";"4860:3,5,7,9; 4866:1,3,5,7,9; 4869:1,3,5,7; 4872:1-6,74-79; 4878:1-3,5; 4888:5,7;";"0.0000";"0.0000";"0.0000"
"Польша моб.Plus роуминг";"01.08.2009";"";"48601";"0.0000";"0.0000";"0.0000"
"Польша моб.P4";"01.08.2009";"";"48729:0-1; 4879:0-4,6;";"0.0000";"0.0000";"0.0000"
"Польша моб.др.";"01.08.2009";"";"48:699,72;";"0.0000";"0.0000";"0.0000"
"Польша мобильные";"01.08.2009";"";"48:39,642,700-701,707-708,727,7281-7284,729,800-801,804,806,808;";"0.0000";"0.0000";"0.0000"
"Польша мобильные Era";"01.08.2009";"";"48666:0-5,7; 48728:5-9;";"0.0000";"0.0000";"0.0000"
"Польша мобильные Idea";"01.08.2009";"";"48799";"0.0000";"0.0000";"0.0000"
"Португалия";"01.08.2009";"";"351,3512:1-2;";"0.0000";"0.0000";"0.0000"
"Португалия Моб";"01.08.2009";"";"3516:39,59;";"0.0000";"0.0000";"0.0000"
"Португалия моб.Optimus";"01.08.2009";"";"35193";"0.0000";"0.0000";"0.0000"
"Португалия моб.TMN";"01.08.2009";"";"35196";"0.0000";"0.0000";"0.0000"
"Португалия моб.TMN и MVNO";"01.08.2009";"";"35192";"0.0000";"0.0000";"0.0000"
"Португалия моб.Vodafone";"01.08.2009";"";"35191";"0.0000";"0.0000";"0.0000"
"Португалия мобильные";"01.08.2009";"";"351609:1,3,6; 3516:593,691,693,696;";"0.0000";"0.0000";"0.0000"
"Пуэрто-Рико (1787)";"01.08.2009";"";"1787";"0.0000";"0.0000";"0.0000"
"Пуэрто-Рико (1939)";"01.08.2009";"";"1939";"0.0000";"0.0000";"0.0000"
"Республика Конго мобильные";"01.08.2009";"";"24380";"0.0000";"0.0000";"0.0000"
"Реюньон о-в";"01.08.2009";"";"262";"0.0000";"0.0000";"0.0000"
"Реюньон о-в моб.";"01.08.2009";"";"2626:39,92-93;";"0.0000";"0.0000";"0.0000"
"Руанда";"01.08.2009";"";"250";"0.0000";"0.0000";"0.0000"
"Руанда моб.";"01.08.2009";"";"2507:5,8;";"0.0000";"0.0000";"0.0000"
"Руанда, мобильные";"01.08.2009";"";"2500:3,5,8;";"0.0000";"0.0000";"0.0000"
"Румыния";"01.08.2009";"";"40";"0.0000";"0.0000";"0.0000"
"Румыния альтернативные сети";"01.08.2009";"";"403";"0.0000";"0.0000";"0.0000"
"Румыния Бухарест";"01.08.2009";"";"4021";"0.0000";"0.0000";"0.0000"
"Румыния моб.Cosmorom";"01.08.2009";"";"4076";"0.0000";"0.0000";"0.0000"
"Румыния моб.DIGI";"01.08.2009";"";"4077";"0.0000";"0.0000";"0.0000"
"Румыния моб.Mobifon";"01.08.2009";"";"407:2-3;";"0.0000";"0.0000";"0.0000"
"Румыния моб.Orange";"01.08.2009";"";"407:4-5;";"0.0000";"0.0000";"0.0000"
"Румыния моб.Telemobil";"01.08.2009";"";"4078";"0.0000";"0.0000";"0.0000"
"Сальвадор";"01.08.2009";"";"503";"0.0000";"0.0000";"0.0000"
"Сальвадор моб";"01.08.2009";"";"503:8-9;";"0.0000";"0.0000";"0.0000"
"Сальвадор моб.";"01.08.2009";"";"5037";"0.0000";"0.0000";"0.0000"
"Сан-Марино";"01.08.2009";"";"378";"0.0000";"0.0000";"0.0000"
"Санта Люсия мобильные";"01.08.2009";"";"175828:4-7; 1758:384,460-461,481-482,484-489,518-520,584,638,714-720;";"0.0000";"0.0000";"0.0000"
"Сан-Томе и Принсипи";"01.08.2009";"";"239";"0.0000";"0.0000";"0.0000"
"Саудовская Аравия";"01.08.2009";"";"966";"0.0000";"0.0000";"0.0000"
"Саудовская Аравия Джидда";"01.08.2009";"";"9662:2,6;";"0.0000";"0.0000";"0.0000"
"Саудовская Аравия Мекка";"01.08.2009";"";"96625";"0.0000";"0.0000";"0.0000"
"Саудовская Аравия моб.др.";"01.08.2009";"";"9665";"0.0000";"0.0000";"0.0000"
"Саудовская Аравия Эр-Рияд";"01.08.2009";"";"9661:2,4;";"0.0000";"0.0000";"0.0000"
"Свазиленд";"01.08.2009";"";"268,2686:2-3;";"0.0000";"0.0000";"0.0000"
"Свазиленд мобильные";"01.08.2009";"";"2686:0-1,4-8;";"0.0000";"0.0000";"0.0000"
"Святой Елены о-в";"01.08.2009";"";"290";"0.0000";"0.0000";"0.0000"
"Северные Марианские о-ва";"01.08.2009";"";"1670";"0.0000";"0.0000";"0.0000"
"Сейнт Люсия мобильные";"01.08.2009";"";"175871:2-3; 175872:1-4; 175878:4-5;";"0.0000";"0.0000";"0.0000"
"Сейшельские о-ва";"01.08.2009";"";"248";"0.0000";"0.0000";"0.0000"
"Сейшельские о-ва моб.";"01.08.2009";"";"248:5,7;";"0.0000";"0.0000";"0.0000"
"Сенегал";"01.08.2009";"";"221";"0.0000";"0.0000";"0.0000"
"Сенегал моб.Orange";"01.08.2009";"";"22177";"0.0000";"0.0000";"0.0000"
"Сенегал моб.TIGO";"01.08.2009";"";"22176";"0.0000";"0.0000";"0.0000"
"Сен-Пьер и Микелон о-в";"01.08.2009";"";"508";"0.0000";"0.0000";"0.0000"
"Сент-Винсент и Гренадины";"01.08.2009";"";"1784";"0.0000";"0.0000";"0.0000"
"Сент-Винсент и Гренадины мобильные";"01.08.2009";"";"178443:0-5; 178445:4-5; 178449:1-8; 17845:26-33,93;";"0.0000";"0.0000";"0.0000"
"Сент-Китс и Невис мобильные";"01.08.2009";"";"186955:6-8; 186956:5-7; 1869:66,762-765;";"0.0000";"0.0000";"0.0000"
"Сент-Китс и Невис о-в";"01.08.2009";"";"1869";"0.0000";"0.0000";"0.0000"
"Сент-Люсия о-в";"01.08.2009";"";"1758";"0.0000";"0.0000";"0.0000"
"Сербия";"01.08.2009";"";"381";"0.0000";"0.0000";"0.0000"
"Сербия Белград";"01.08.2009";"";"38111";"0.0000";"0.0000";"0.0000"
"Сербия Косово";"01.08.2009";"";"3812:8-9; 3813:8-9;";"0.0000";"0.0000";"0.0000"
"Сербия моб.Telecom Serbia";"01.08.2009";"";"3816:4-6;";"0.0000";"0.0000";"0.0000"
"Сербия моб.Telenor";"01.08.2009";"";"3816:2-3,9;";"0.0000";"0.0000";"0.0000"
"Сербия моб.TopNet";"01.08.2009";"";"3816:0-1,8;";"0.0000";"0.0000";"0.0000"
"Сиерра Лионе моб";"01.08.2009";"";"232:23,35,40,50;";"0.0000";"0.0000";"0.0000"
"Сингапур";"01.08.2009";"";"65";"0.0000";"0.0000";"0.0000"
"Сирия";"01.08.2009";"";"963";"0.0000";"0.0000";"0.0000"
"Сирия моб.";"01.08.2009";"";"9639";"0.0000";"0.0000";"0.0000"
"Словакия";"01.08.2009";"";"421";"0.0000";"0.0000";"0.0000"
"Словакия моб.Eurotel";"01.08.2009";"";"42190:1-2,4; 42191:0-2,4;";"0.0000";"0.0000";"0.0000"
"Словакия моб.Eurotel роуминг";"01.08.2009";"";"421903";"0.0000";"0.0000";"0.0000"
"Словакия моб.Orange";"01.08.2009";"";"42190:5-6,8; 42191:5-9;";"0.0000";"0.0000";"0.0000"
"Словакия моб.Orange роуминг";"01.08.2009";"";"421907";"0.0000";"0.0000";"0.0000"
"Словакия моб.O2";"01.08.2009";"";"42194:0,4,8-9;";"0.0000";"0.0000";"0.0000"
"Словакия мобильная";"01.08.2009";"";"421900";"0.0000";"0.0000";"0.0000"
"Словакия, мобильные";"01.08.2009";"";"421909:1-9; 421913";"0.0000";"0.0000";"0.0000"
"Словения";"01.08.2009";"";"386";"0.0000";"0.0000";"0.0000"
"Словения моб.IPKO";"01.08.2009";"";"3864:3,9;";"0.0000";"0.0000";"0.0000"
"Словения моб.Mobitel";"01.08.2009";"";"386:31,41,51,71;";"0.0000";"0.0000";"0.0000"
"Словения моб.Simobil";"01.08.2009";"";"386:30,40;";"0.0000";"0.0000";"0.0000"
"Словения моб.Tusmobil";"01.08.2009";"";"38670";"0.0000";"0.0000";"0.0000"
"Словения моб.T2-mobile";"01.08.2009";"";"386:64,9814;";"0.0000";"0.0000";"0.0000"
"Словения, мобильные";"01.08.2009";"";"3866:1,41;";"0.0000";"0.0000";"0.0000"
"Соломоновы о-ва";"01.08.2009";"";"677";"0.0000";"0.0000";"0.0000"
"Сомали";"01.08.2009";"";"252,2525:7-8; 2526:19,24;";"0.0000";"0.0000";"0.0000"
"Сомали Golis";"01.08.2009";"";"252:88,90;";"0.0000";"0.0000";"0.0000"
"Сомали Hormud";"01.08.2009";"";"2521:5-6,8; 2523:4,9; 2524:3,7;";"0.0000";"0.0000";"0.0000"
"Сомали Nationlink";"01.08.2009";"";"2521:7,9; 25222:7-8; 2525:0-1,3,6,9; 2526:7,9;";"0.0000";"0.0000";"0.0000"
"Сомали Onkotel";"01.08.2009";"";"2529";"0.0000";"0.0000";"0.0000"
"Сомали Soltelco";"01.08.2009";"";"252:225,825,828-829;";"0.0000";"0.0000";"0.0000"
"Сомали Somtel";"01.08.2009";"";"25273:1-2; 25274:1-3; 2527:51,61-62,66-67,81,93;";"0.0000";"0.0000";"0.0000"
"Сомали STG Galcom";"01.08.2009";"";"25266";"0.0000";"0.0000";"0.0000"
"Сомали Telecom Somalia";"01.08.2009";"";"2521:2-4; 252:23,33,620-623,625-629,65;";"0.0000";"0.0000";"0.0000"
"Сомали Telesom";"01.08.2009";"";"2522:4-7;";"0.0000";"0.0000";"0.0000"
"Сомали мобильные";"01.08.2009";"";"25264:2-4,89,9;";"0.0000";"0.0000";"0.0000"
"Спутниковая сеть Ellipso";"01.08.2009";"";"8813";"0.0000";"0.0000";"0.0000"
"Спутниковая сеть Emsat";"01.08.2009";"";"88213";"0.0000";"0.0000";"0.0000"
"Спутниковая сеть GlobalStar";"01.08.2009";"";"8818,881:890,9,990;";"0.0000";"0.0000";"0.0000"
"Спутниковая сеть Inmarsat";"01.08.2009";"";"870";"0.0000";"0.0000";"0.0000"
"Спутниковая сеть Iridium";"01.08.2009";"";"881:6-7;";"0.0000";"0.0000";"0.0000"
"Спутниковая сеть MCP";"01.08.2009";"";"88232";"0.0000";"0.0000";"0.0000"
"Спутниковая сеть Oration";"01.08.2009";"";"88233,882333";"0.0000";"0.0000";"0.0000"
"Спутниковая сеть Thuraya";"01.08.2009";"";"88216";"0.0000";"0.0000";"0.0000"
"Судан";"01.08.2009";"";"249,24994";"0.0000";"0.0000";"0.0000"
"Судан Canar сеть";"01.08.2009";"";"24915";"0.0000";"0.0000";"0.0000"
"Судан моб.Mobitel";"01.08.2009";"";"2499:0-1;";"0.0000";"0.0000";"0.0000"
"Судан моб.MTN";"01.08.2009";"";"24992";"0.0000";"0.0000";"0.0000"
"Судан моб.Sudatel";"01.08.2009";"";"24912";"0.0000";"0.0000";"0.0000"
"Судан моб.Vivacell";"01.08.2009";"";"24995";"0.0000";"0.0000";"0.0000"
"Судан моб.др.";"01.08.2009";"";"2499";"0.0000";"0.0000";"0.0000"
"Суринам";"01.08.2009";"";"597";"0.0000";"0.0000";"0.0000"
"Суринам моб.";"01.08.2009";"";"59771";"0.0000";"0.0000";"0.0000"
"Суринам мобильные";"01.08.2009";"";"5978:1-3,5-9;";"0.0000";"0.0000";"0.0000"
"США";"01.08.2009";"";"1,12:06,14,31,48; 13:05,10,12-13,23; 14:04,25,69; 151:6-7; 15:62,86; 161:6-7; 16:26,30-31,78,81; 170:6,8; 17:34,70,73,81,86; 181:0,8; 18:47,80-81; 19:06,49,72,89;";"0.0000";"0.0000";"0.0000"
"США Freefone";"01.08.2009";"";"18:00,66,77,88;";"0.0000";"0.0000";"0.0000"
"США Аляска";"01.08.2009";"";"1907";"0.0000";"0.0000";"0.0000"
"США Гавайские о-ва";"01.08.2009";"";"1808";"0.0000";"0.0000";"0.0000"
"США Мичиган";"01.08.2009";"";"1296";"0.0000";"0.0000";"0.0000"
"США Нью-Йорк";"01.08.2009";"";"121:2-3; 1347,1646,1718,1917";"0.0000";"0.0000";"0.0000"
"США 2";"01.08.2009";"";"1714";"0.0000";"0.0000";"0.0000"
"Сьерра-Леоне";"01.08.2009";"";"232";"0.0000";"0.0000";"0.0000"
"Сьерра-Леоне моб.";"01.08.2009";"";"232:25,30,33,76-77;";"0.0000";"0.0000";"0.0000"
"Сьерра-Леоне Фритаун";"01.08.2009";"";"23222";"0.0000";"0.0000";"0.0000"
"Таджикистан";"01.08.2009";"";"992,99241";"0.0000";"0.0000";"0.0000"
"Таджикистан Душанбе";"01.08.2009";"";"992372";"0.0000";"0.0000";"0.0000"
"Таджикистан моб.Babilon";"01.08.2009";"";"992918";"0.0000";"0.0000";"0.0000"
"Таджикистан моб.Indigo";"01.08.2009";"";"99293";"0.0000";"0.0000";"0.0000"
"Таджикистан моб.M-Teko";"01.08.2009";"";"99296";"0.0000";"0.0000";"0.0000"
"Таджикистан моб.Somoncom";"01.08.2009";"";"99292";"0.0000";"0.0000";"0.0000"
"Таджикистан моб.Tacom";"01.08.2009";"";"99291:7,9;";"0.0000";"0.0000";"0.0000"
"Таджикистан моб.Telecom Ink.";"01.08.2009";"";"99297";"0.0000";"0.0000";"0.0000"
"Таджикистан моб.TK-Mobile";"01.08.2009";"";"99295";"0.0000";"0.0000";"0.0000"
"Таджикистан моб.Tojiktelecom";"01.08.2009";"";"99299";"0.0000";"0.0000";"0.0000"
"Таджикистан моб.TT-Mobile";"01.08.2009";"";"99290";"0.0000";"0.0000";"0.0000"
"Таджикистан моб.др.";"01.08.2009";"";"9929";"0.0000";"0.0000";"0.0000"
"Таджикистан, мобильные";"01.08.2009";"";"9924:2-4,6-8; 9929:35,81,85;";"0.0000";"0.0000";"0.0000"
"Таиланд";"01.08.2009";"";"66";"0.0000";"0.0000";"0.0000"
"Таити моб";"01.08.2009";"";"689:2,7;";"0.0000";"0.0000";"0.0000"
"Тайвань";"01.08.2009";"";"886";"0.0000";"0.0000";"0.0000"
"Тайвань моб.";"01.08.2009";"";"886:60,70,9;";"0.0000";"0.0000";"0.0000"
"Танзания";"01.08.2009";"";"255";"0.0000";"0.0000";"0.0000"
"Танзания Дар-Эс-Салам";"01.08.2009";"";"25522";"0.0000";"0.0000";"0.0000"
"Танзания, мобильные";"01.08.2009";"";"2557:1,3,5-6,8-9;";"0.0000";"0.0000";"0.0000"
"Танзания мобильные";"01.08.2009";"";"2557:4,7;";"0.0000";"0.0000";"0.0000"
"Теркс и Кайкос острова мобильные";"01.08.2009";"";"164924:5-7;";"0.0000";"0.0000";"0.0000"
"Тимор вост.";"01.08.2009";"";"670";"0.0000";"0.0000";"0.0000"
"Того";"01.08.2009";"";"228";"0.0000";"0.0000";"0.0000"
"Токелау";"01.08.2009";"";"690";"0.0000";"0.0000";"0.0000"
"Тонга";"01.08.2009";"";"676";"0.0000";"0.0000";"0.0000"
"Тринидад и Тобаго";"01.08.2009";"";"1868";"0.0000";"0.0000";"0.0000"
"Тринидад и Тобаго моб.";"01.08.2009";"";"1868:29,3,7;";"0.0000";"0.0000";"0.0000"
"Тринидад и Тобаго мобильные";"01.08.2009";"";"18686:20,78,8;";"0.0000";"0.0000";"0.0000"
"Тринидад и Тобаго мобильные";"01.08.2009";"";"18684:0-2,6-9;";"0.0000";"0.0000";"0.0000"
"Тувалу";"01.08.2009";"";"688";"0.0000";"0.0000";"0.0000"
"Тунис";"01.08.2009";"";"216";"0.0000";"0.0000";"0.0000"
"Тунис моб.Tunisia-telecom";"01.08.2009";"";"2169";"0.0000";"0.0000";"0.0000"
"Тунис, мобильные";"01.08.2009";"";"2167:1,9;";"0.0000";"0.0000";"0.0000"
"Тунис мобильные ORASCOM";"01.08.2009";"";"2162:0-6;";"0.0000";"0.0000";"0.0000"
"Турецкий Кипр";"01.08.2009";"";"35774";"0.0000";"0.0000";"0.0000"
"Туркменистан";"01.08.2009";"";"993";"0.0000";"0.0000";"0.0000"
"Туркменистан Ашхабад";"01.08.2009";"";"99312";"0.0000";"0.0000";"0.0000"
"Туркменистан моб.";"01.08.2009";"";"9936";"0.0000";"0.0000";"0.0000"
"Туркс и Кайкос о-ва";"01.08.2009";"";"1649";"0.0000";"0.0000";"0.0000"
"Туркс и Кайкос острова мобильные";"01.08.2009";"";"164923:1-2; 164924:1-4; 164933:1-3; 164934:1-6; 164943:1-2; 164944:1-2;";"0.0000";"0.0000";"0.0000"
"Турция";"01.08.2009";"";"90";"0.0000";"0.0000";"0.0000"
"Турция Адана";"01.08.2009";"";"90322";"0.0000";"0.0000";"0.0000"
"Турция Анкара";"01.08.2009";"";"90312";"0.0000";"0.0000";"0.0000"
"Турция Анталья";"01.08.2009";"";"90242";"0.0000";"0.0000";"0.0000"
"Турция Бурса";"01.08.2009";"";"90224";"0.0000";"0.0000";"0.0000"
"Турция Диабакир";"01.08.2009";"";"90412";"0.0000";"0.0000";"0.0000"
"Турция Измир";"01.08.2009";"";"90232";"0.0000";"0.0000";"0.0000"
"Турция Кайзери";"01.08.2009";"";"90352";"0.0000";"0.0000";"0.0000"
"Турция Конья";"01.08.2009";"";"90332";"0.0000";"0.0000";"0.0000"
"Турция моб.Aycell";"01.08.2009";"";"905:0,5;";"0.0000";"0.0000";"0.0000"
"Турция моб.Telsim";"01.08.2009";"";"9054";"0.0000";"0.0000";"0.0000"
"Турция моб.Turkcell";"01.08.2009";"";"9053";"0.0000";"0.0000";"0.0000"
"Турция, мобильные";"01.08.2009";"";"9056:2,4;";"0.0000";"0.0000";"0.0000"
"Турция мобильные";"01.08.2009";"";"9059:2,4,6;";"0.0000";"0.0000";"0.0000"
"Турция, мобильные NMT";"01.08.2009";"";"9052";"0.0000";"0.0000";"0.0000"
"Турция мобильные North Cyprus";"01.08.2009";"";"905428:5-8;";"0.0000";"0.0000";"0.0000"
"Турция моб.Северный Кипр Turkcell";"01.08.2009";"";"905338";"0.0000";"0.0000";"0.0000"
"Турция Мугла";"01.08.2009";"";"90252";"0.0000";"0.0000";"0.0000"
"Турция Самсун";"01.08.2009";"";"90362";"0.0000";"0.0000";"0.0000"
"Турция Северный Кипр";"01.08.2009";"";"90392";"0.0000";"0.0000";"0.0000"
"Турция Стамбул";"01.08.2009";"";"9021:2,6;";"0.0000";"0.0000";"0.0000"
"Турция Трабзон";"01.08.2009";"";"90462";"0.0000";"0.0000";"0.0000"
"Турция Эрзурум";"01.08.2009";"";"90442";"0.0000";"0.0000";"0.0000"
"Уганда";"01.08.2009";"";"256";"0.0000";"0.0000";"0.0000"
"Уганда моб.Celtel";"01.08.2009";"";"25675";"0.0000";"0.0000";"0.0000"
"Уганда моб.Gemtel";"01.08.2009";"";"256477";"0.0000";"0.0000";"0.0000"
"Уганда моб.MTN";"01.08.2009";"";"256:39,77-78;";"0.0000";"0.0000";"0.0000"
"Уганда моб.Telecel";"01.08.2009";"";"25671";"0.0000";"0.0000";"0.0000"
"Уганда моб.Warid";"01.08.2009";"";"25670";"0.0000";"0.0000";"0.0000"
"Узбекистан";"01.08.2009";"";"998";"0.0000";"0.0000";"0.0000"
"Узбекистан моб.Coscom";"01.08.2009";"";"99893";"0.0000";"0.0000";"0.0000"
"Узбекистан моб.др.";"01.08.2009";"";"9989";"0.0000";"0.0000";"0.0000"
"Узбекистан Ташкент";"01.08.2009";"";"99871:1-4;";"0.0000";"0.0000";"0.0000"
"Украина";"01.08.2009";"";"380,38053250:6-9; 3805326:1,20-24; 38053678:5-9; 3805:3679,4237,4278; 3806:1701,2207-2208,22514,232841-232845,233200-233202,233281-233282,23401,23410-23411,2345,2348-2349,23510,23996-23999,24560-24563,26481,2661,274981-274985,29421,294220-294224,29427,2948-2949,295380-295385,295390-295394,295396-295399,29560-29563,29591,42420,42588-42589,42595-42596,4271;";"0.0000";"0.0000";"0.0000"
"Украина Винница";"01.08.2009";"";"380432";"0.0000";"0.0000";"0.0000"
"Украина Днепропетровск";"01.08.2009";"";"38056:2,37,7,785-786;";"0.0000";"0.0000";"0.0000"
"Украина Донецк";"01.08.2009";"";"380622";"0.0000";"0.0000";"0.0000"
"Украина Донецк";"01.08.2009";"";"380623:3-4,8;";"0.0000";"0.0000";"0.0000"
"Украина Запорожье";"01.08.2009";"";"380612,380612:20,70;";"0.0000";"0.0000";"0.0000"
"Украина Киев";"01.08.2009";"";"380442,38044222:5-9; 3804422:3,7-9; 38044231:0,8-9; 38044:282,331-332,4,4515-4517,46134-46139,4614,5,5371,5875-5879,592,5955-5959,599;";"0.0000";"0.0000";"0.0000"
"Украина Кривой Рог";"01.08.2009";"";"380564";"0.0000";"0.0000";"0.0000"
"Украина Луганск";"01.08.2009";"";"3806423:1-2,35,37-39,4-5; 38064259:0,9;";"0.0000";"0.0000";"0.0000"
"Украина Львов";"01.08.2009";"";"380322,38032220";"0.0000";"0.0000";"0.0000"
"Украина моб.Astelit";"01.08.2009";"";"380:63,93;";"0.0000";"0.0000";"0.0000"
"Украина моб.InterTelecom";"01.08.2009";"";"38094";"0.0000";"0.0000";"0.0000"
"Украина моб.Kyivstar";"01.08.2009";"";"3809:6-8;";"0.0000";"0.0000";"0.0000"
"Украина моб.Kyivstar роуминг";"01.08.2009";"";"38067";"0.0000";"0.0000";"0.0000"
"Украина моб.Telesystems";"01.08.2009";"";"38092";"0.0000";"0.0000";"0.0000"
"Украина моб.Ukrtelecom";"01.08.2009";"";"38091";"0.0000";"0.0000";"0.0000"
"Украина моб.UMC";"01.08.2009";"";"380:50,66,95,99;";"0.0000";"0.0000";"0.0000"
"Украина моб.Welcom";"01.08.2009";"";"38068";"0.0000";"0.0000";"0.0000"
"Украина, мобильные";"01.08.2009";"";"38039";"0.0000";"0.0000";"0.0000"
"Украина Николаев";"01.08.2009";"";"380512";"0.0000";"0.0000";"0.0000"
"Украина Одесса";"01.08.2009";"";"380482390:5-6; 38048:2399,788;";"0.0000";"0.0000";"0.0000"
"Украина Харьков";"01.08.2009";"";"38057:2-3,7,714,716-719,750-752,754-759,762,764,767,774;";"0.0000";"0.0000";"0.0000"
"Украина Харьков Мобильные";"01.08.2009";"";"3805776:6,8-9;";"0.0000";"0.0000";"0.0000"
"Украина Херсон";"01.08.2009";"";"380552";"0.0000";"0.0000";"0.0000"
"Уоллес и Футуна о-ва";"01.08.2009";"";"681";"0.0000";"0.0000";"0.0000"
"Уругвай";"01.08.2009";"";"598";"0.0000";"0.0000";"0.0000"
"Уругвай мобильные";"01.08.2009";"";"5989:4-9;";"0.0000";"0.0000";"0.0000"
"Уругвай Монтевидео";"01.08.2009";"";"5982";"0.0000";"0.0000";"0.0000"
"Фарерские о-ва";"01.08.2009";"";"298";"0.0000";"0.0000";"0.0000"
"Фарерские о-ва моб";"01.08.2009";"";"298:2,5,7,9;";"0.0000";"0.0000";"0.0000"
"Фиджи";"01.08.2009";"";"679";"0.0000";"0.0000";"0.0000"
"Филиппины";"01.08.2009";"";"63";"0.0000";"0.0000";"0.0000"
"Филиппины моб.Globe";"01.08.2009";"";"6390:5-6; 6391:5-7; 6392:6-7; 6393:5,7;";"0.0000";"0.0000";"0.0000"
"Филиппины моб.Smart";"01.08.2009";"";"639:07-10,12,18-21,28-29,8;";"0.0000";"0.0000";"0.0000"
"Филиппины моб.Sun";"01.08.2009";"";"6392:2-3; 6393:2-3;";"0.0000";"0.0000";"0.0000"
"Филиппины моб.др.";"01.08.2009";"";"639";"0.0000";"0.0000";"0.0000"
"Финляндия";"01.08.2009";"";"358";"0.0000";"0.0000";"0.0000"
"Финляндия CORPORATE";"01.08.2009";"";"3587";"0.0000";"0.0000";"0.0000"
"Финляндия моб Elisa";"01.08.2009";"";"358432";"0.0000";"0.0000";"0.0000"
"Финляндия моб.Aaland";"01.08.2009";"";"358457:0,3,5;";"0.0000";"0.0000";"0.0000"
"Финляндия моб.DNA";"01.08.2009";"";"3584:1,4,541,574,577-579;";"0.0000";"0.0000";"0.0000"
"Финляндия моб.DNA роуминг";"01.08.2009";"";"3584576";"0.0000";"0.0000";"0.0000"
"Финляндия моб.Elisa";"01.08.2009";"";"35845:1,6; 35846";"0.0000";"0.0000";"0.0000"
"Финляндия моб.Elisa роуминг";"01.08.2009";"";"35850";"0.0000";"0.0000";"0.0000"
"Финляндия моб.TDC";"01.08.2009";"";"35843:6,8;";"0.0000";"0.0000";"0.0000"
"Финляндия моб.TeliaSonera";"01.08.2009";"";"3584:0,2;";"0.0000";"0.0000";"0.0000"
"Финляндия моб.др.";"01.08.2009";"";"3584";"0.0000";"0.0000";"0.0000"
"Финляндия Хельсинки";"01.08.2009";"";"358:19,9;";"0.0000";"0.0000";"0.0000"
"Фолклендские о-ва";"01.08.2009";"";"500";"0.0000";"0.0000";"0.0000"
"Франция";"01.08.2009";"";"33,3314:8-9; 33:17,222,230,234,236,244-245,249-250,253,256,261,278,290,345,357,36,371,430,434,443,456-457,463,469,48,519,531,533,540,547,567;";"0.0000";"0.0000";"0.0000"
"Франция";"01.08.2009";"";"3387";"0.0000";"0.0000";"0.0000"
"Франция CLEC";"01.08.2009";"";"3318:2-3; 3321:4,8; 332:46,85; 333:10,52,70,72-73; 3341:3,5; 33:422,517,524,535,582;";"0.0000";"0.0000";"0.0000"
"Франция OLO";"01.08.2009";"";"339";"0.0000";"0.0000";"0.0000"
"Франция Olo";"01.08.2009";"";"33:411,579;";"0.0000";"0.0000";"0.0000"
"Франция Корсика";"01.08.2009";"";"33420";"0.0000";"0.0000";"0.0000"
"Франция моб Bouygues";"01.08.2009";"";"336:53,6;";"0.0000";"0.0000";"0.0000"
"Франция моб Orange";"01.08.2009";"";"33604";"0.0000";"0.0000";"0.0000"
"Франция моб SFR";"01.08.2009";"";"336:05,36;";"0.0000";"0.0000";"0.0000"
"Франция моб.Bouygues";"01.08.2009";"";"3365:0,8-9; 3369:8-9;";"0.0000";"0.0000";"0.0000"
"Франция моб.Orange";"01.08.2009";"";"3360:7-8; 3363:0-3,7; 3364:2-3,5,7-8; 336:7-8;";"0.0000";"0.0000";"0.0000"
"Франция моб.Orange роуминг";"01.08.2009";"";"33654";"0.0000";"0.0000";"0.0000"
"Франция моб.SFR";"01.08.2009";"";"3360:1,3,40,64-69,9; 336:1-2,34-35,46;";"0.0000";"0.0000";"0.0000"
"Франция моб.SFR роуминг";"01.08.2009";"";"33655";"0.0000";"0.0000";"0.0000"
"Франция моб.др.";"01.08.2009";"";"336";"0.0000";"0.0000";"0.0000"
"Франция, мобильные";"01.08.2009";"";"33606:0-3; 3364:1,9; 3365:6-7;";"0.0000";"0.0000";"0.0000"
"Франция спец.";"01.08.2009";"";"3318:0-1; 3327:2,6-7; 3335:1,4-5,8-9; 3342:6-7; 335:16,81,87;";"0.0000";"0.0000";"0.0000"
"Французская Гвиана";"01.08.2009";"";"594";"0.0000";"0.0000";"0.0000"
"Французская Гвиана моб.";"01.08.2009";"";"594694";"0.0000";"0.0000";"0.0000"
"Французская Полинезия";"01.08.2009";"";"689";"0.0000";"0.0000";"0.0000"
"Хорватия";"01.08.2009";"";"385";"0.0000";"0.0000";"0.0000"
"Хорватия моб.Tele2";"01.08.2009";"";"38595";"0.0000";"0.0000";"0.0000"
"Хорватия моб.T-mobile";"01.08.2009";"";"3859:7-9;";"0.0000";"0.0000";"0.0000"
"Хорватия моб.VIP-NET";"01.08.2009";"";"3859:1-2;";"0.0000";"0.0000";"0.0000"
"Центрально-Африканская Республика";"01.08.2009";"";"236";"0.0000";"0.0000";"0.0000"
"Центрально-Африканская Республика моб.";"01.08.2009";"";"2367:0,2,5,7;";"0.0000";"0.0000";"0.0000"
"Чад";"01.08.2009";"";"235";"0.0000";"0.0000";"0.0000"
"Чад моб.";"01.08.2009";"";"2357";"0.0000";"0.0000";"0.0000"
"Чад моб.Celtel";"01.08.2009";"";"235:3,6;";"0.0000";"0.0000";"0.0000"
"Чад моб.Millicom";"01.08.2009";"";"2359";"0.0000";"0.0000";"0.0000"
"Черногория";"01.08.2009";"";"382";"0.0000";"0.0000";"0.0000"
"Черногория моб.MTEL";"01.08.2009";"";"38268";"0.0000";"0.0000";"0.0000"
"Черногория моб.ProMonte";"01.08.2009";"";"3826:3,9;";"0.0000";"0.0000";"0.0000"
"Черногория моб.T-Mobile";"01.08.2009";"";"38267";"0.0000";"0.0000";"0.0000"
"Чехия";"01.08.2009";"";"420";"0.0000";"0.0000";"0.0000"
"Чехия моб.";"01.08.2009";"";"4207:2-3,7; 42093";"0.0000";"0.0000";"0.0000"
"Чехия моб O2";"01.08.2009";"";"42060:1,6-7; 42096:1-2,6;";"0.0000";"0.0000";"0.0000"
"Чехия моб T-Mobile";"01.08.2009";"";"42060:4-5; 42096:3-5;";"0.0000";"0.0000";"0.0000"
"Чехия моб Vodafone";"01.08.2009";"";"420:608,967;";"0.0000";"0.0000";"0.0000"
"Чехия моб.роуминг";"01.08.2009";"";"42060:2-3;";"0.0000";"0.0000";"0.0000"
"Чехия Прага (обл.)";"01.08.2009";"";"4202";"0.0000";"0.0000";"0.0000"
"Чили";"01.08.2009";"";"56";"0.0000";"0.0000";"0.0000"
"Чили моб.";"01.08.2009";"";"56:8-9;";"0.0000";"0.0000";"0.0000"
"Чили Сантьяго";"01.08.2009";"";"562";"0.0000";"0.0000";"0.0000"
"Швейцария";"01.08.2009";"";"41";"0.0000";"0.0000";"0.0000"
"Швейцария моб.Global Net";"01.08.2009";"";"4179979";"0.0000";"0.0000";"0.0000"
"Швейцария моб.Orange";"01.08.2009";"";"41:78,86078;";"0.0000";"0.0000";"0.0000"
"Швейцария моб.Sunrise";"01.08.2009";"";"41:76,86076;";"0.0000";"0.0000";"0.0000"
"Швейцария моб.Swisscom";"01.08.2009";"";"417:74,9; 418607:74,9;";"0.0000";"0.0000";"0.0000"
"Швейцария моб.Tele 2";"01.08.2009";"";"41:772,860772;";"0.0000";"0.0000";"0.0000"
"Швейцария моб.др.";"01.08.2009";"";"41:77,86077;";"0.0000";"0.0000";"0.0000"
"Швейцария мобильные SWISSCOM";"01.08.2009";"";"4186079979";"0.0000";"0.0000";"0.0000"
"Швейцария пейджинг";"01.08.2009";"";"4174";"0.0000";"0.0000";"0.0000"
"Швейцария Цюрих";"01.08.2009";"";"41:1,43-44;";"0.0000";"0.0000";"0.0000"
"Швеция";"01.08.2009";"";"46";"0.0000";"0.0000";"0.0000"
"Швеция TELIA мобильные";"01.08.2009";"";"46101";"0.0000";"0.0000";"0.0000"
"Швеция моб.Comviq";"01.08.2009";"";"46:252,700,7015-7016,704,707,7190000,7321-7322,73461,7355-7359,736-737,7387,7389,739,762,7640-7642,7665,76695-76699,7670-7671,76720-76721,7672673,7690-7694;";"0.0000";"0.0000";"0.0000"
"Швеция моб.Hi3G";"01.08.2009";"";"46:675,7616-7619,763;";"0.0000";"0.0000";"0.0000"
"Швеция моб.Hi3G роуминг";"01.08.2009";"";"46735:0-4;";"0.0000";"0.0000";"0.0000"
"Швеция моб.Telenor";"01.08.2009";"";"46:674,7011,7014,708-709,7190001,7310,7314-7315,7320,7323-7326,7328,733,7340-7344,7385-7386,7388,7635-7637,7660-7664,7685-7689;";"0.0000";"0.0000";"0.0000"
"Швеция моб.Telia";"01.08.2009";"";"46:376,518-519,673,7010,7012-7013,7017-7018,70190-70191,70198,702-703,706,730,7311,7316,7318,7327,7329,73456,7380-7384,7610-7614,7676-7684;";"0.0000";"0.0000";"0.0000"
"Швеция моб.Telia роуминг";"01.08.2009";"";"46705";"0.0000";"0.0000";"0.0000"
"Швеция моб.др.";"01.08.2009";"";"46:676,70,73,76;";"0.0000";"0.0000";"0.0000"
"Швеция, мобильные";"01.08.2009";"";"4610:2-3,6; 4670:05,195; 467319";"0.0000";"0.0000";"0.0000"
"Швеция, мобильные 2";"01.08.2009";"";"46765:5-9;";"0.0000";"0.0000";"0.0000"
"Швеция, мобильные 3";"01.08.2009";"";"467019:6-7,9;";"0.0000";"0.0000";"0.0000"
"Швеция специальные сервисы";"01.08.2009";"";"4674";"0.0000";"0.0000";"0.0000"
"Шри-Ланка";"01.08.2009";"";"94";"0.0000";"0.0000";"0.0000"
"Шри-Ланка моб.Airtel";"01.08.2009";"";"9475";"0.0000";"0.0000";"0.0000"
"Шри-Ланка моб.Celltel";"01.08.2009";"";"9472";"0.0000";"0.0000";"0.0000"
"Шри-Ланка моб.Dialog";"01.08.2009";"";"9477";"0.0000";"0.0000";"0.0000"
"Шри-Ланка моб.Hutch";"01.08.2009";"";"9478";"0.0000";"0.0000";"0.0000"
"Шри-Ланка моб.Mobitel";"01.08.2009";"";"9471";"0.0000";"0.0000";"0.0000"
"Шри-Ланка мобильные";"01.08.2009";"";"947:3,6,9;";"0.0000";"0.0000";"0.0000"
"Эквадор";"01.08.2009";"";"593,59342";"0.0000";"0.0000";"0.0000"
"Эквадор Pacifictel";"01.08.2009";"";"593:4-5,7;";"0.0000";"0.0000";"0.0000"
"Эквадор Кито ANDINATEL ZONE";"01.08.2009";"";"593:2-3,6;";"0.0000";"0.0000";"0.0000"
"Эквадор Куэнка";"01.08.2009";"";"59372:0,8;";"0.0000";"0.0000";"0.0000"
"Эквадор мобильные";"01.08.2009";"";"5938:2,7; 593:89-90;";"0.0000";"0.0000";"0.0000"
"Эквадор мобильные ALEGRO PCS";"01.08.2009";"";"59396";"0.0000";"0.0000";"0.0000"
"Эквадор мобильные PORTA AND OTHER";"01.08.2009";"";"5938:5-6,8; 5939:1,3-4,7;";"0.0000";"0.0000";"0.0000"
"Эквадор мобильные TELEFONICA";"01.08.2009";"";"593:84,925-929,95,98,990,992,997-999;";"0.0000";"0.0000";"0.0000"
"Экваториальная Гвинея";"01.08.2009";"";"240";"0.0000";"0.0000";"0.0000"
"Экваториальная Гвинея мобильные";"01.08.2009";"";"240:2,5-6;";"0.0000";"0.0000";"0.0000"
"Эритрея";"01.08.2009";"";"291";"0.0000";"0.0000";"0.0000"
"Эритрея мобильные";"01.08.2009";"";"2917";"0.0000";"0.0000";"0.0000"
"Эстония";"01.08.2009";"";"372";"0.0000";"0.0000";"0.0000"
"Эстония моб Bravocom";"01.08.2009";"";"3725353";"0.0000";"0.0000";"0.0000"
"Эстония моб.Elisa";"01.08.2009";"";"37256";"0.0000";"0.0000";"0.0000"
"Эстония моб.EMT";"01.08.2009";"";"3725:0-2,90;";"0.0000";"0.0000";"0.0000"
"Эстония моб.Tele2";"01.08.2009";"";"37255";"0.0000";"0.0000";"0.0000"
"Эстония моб.др.";"01.08.2009";"";"372:5,81-82;";"0.0000";"0.0000";"0.0000"
"Эстония, мобильные";"01.08.2009";"";"37253,37253:1-3,6; 37257,37257:0-1; 3725:8,91;";"0.0000";"0.0000";"0.0000"
"Эстония специальные сервисы";"01.08.2009";"";"37270";"0.0000";"0.0000";"0.0000"
"Эфиопия";"01.08.2009";"";"251";"0.0000";"0.0000";"0.0000"
"Эфиопия Аддис-Абеба";"01.08.2009";"";"25111";"0.0000";"0.0000";"0.0000"
"Эфиопия моб.";"01.08.2009";"";"2519";"0.0000";"0.0000";"0.0000"
"Эфиопия мобильные";"01.08.2009";"";"2512:289,589,689; 2513:389,489; 2514:689,789; 2515:789,889;";"0.0000";"0.0000";"0.0000"
"Южно-Африканская Республика";"01.08.2009";"";"27";"0.0000";"0.0000";"0.0000"
"Южно-Африканская Республика моб.";"01.08.2009";"";"277:1-6,8-9; 278:2-5;";"0.0000";"0.0000";"0.0000"
"Южно-Африканская Республика, мобильные";"01.08.2009";"";"27771:1-6;";"0.0000";"0.0000";"0.0000"
"Южно-Африканская Р-ка";"01.08.2009";"";"2711";"0.0000";"0.0000";"0.0000"
"Южно-Африканская Р-ка Дурбан";"01.08.2009";"";"2731";"0.0000";"0.0000";"0.0000"
"Южно-Африканская Р-ка Кейптаун";"01.08.2009";"";"2721";"0.0000";"0.0000";"0.0000"
"Ямайка";"01.08.2009";"";"1876";"0.0000";"0.0000";"0.0000"
"Ямайка моб.";"01.08.2009";"";"18762:8-9; 1876:3-4,50,52-55,57-59,909,919,990,995,997,999;";"0.0000";"0.0000";"0.0000"
"Ямайка, мобильные";"01.08.2009";"";"1876:210,503-509,520-522,524,527-529,560-562,564-569,618-619,621,648-649,700,707,77-80;";"0.0000";"0.0000";"0.0000"
"Ямайка мобильные C&W";"01.08.2009";"";"18763:1-4; 187678:1-4; 18767:87-93,96-99; 187680:4-9; 18768:1-3;";"0.0000";"0.0000";"0.0000"
"Ямайка мобильные DIGICEL";"01.08.2009";"";"1876:35-40,410,412-414,416-419,42-48,84-89;";"0.0000";"0.0000";"0.0000"
"Ямайка мобильные OCEANIC";"01.08.2009";"";"1876:30,49;";"0.0000";"0.0000";"0.0000"
"Япония";"01.08.2009";"";"81,813";"0.0000";"0.0000";"0.0000"
"Япония IP Phone";"01.08.2009";"";"8150";"0.0000";"0.0000";"0.0000"
"Япония моб.";"01.08.2009";"";"81:70,80,90;";"0.0000";"0.0000";"0.0000"
"Япония, Токио";"01.08.2009";"";"8149";"0.0000";"0.0000";"0.0000"
